#
#  SCF calculation of a C60 molecule by the LDA and
#  the generalized divide-conquer method
#

#
#      File Name      
#

System.CurrrentDirectory         ./    # default=./
System.Name                      CChain
level.of.stdout                   1    # default=1 (1-3)
level.of.fileout                  1    # default=1 (0-2)

#
# Definition of Atomic Species
#

DATA.PATH  ../../../DFT_DATA/
Species.Number       1
<Definition.of.Atomic.Species
 C   C6.0-s3p3d1   C_TM_PCC
Definition.of.Atomic.Species>

#
# Atoms
#

Atoms.Number        29
Atoms.SpeciesAndCoordinates.Unit   AU # Ang|AU
<Atoms.SpeciesAndCoordinates           # Unit=Ang.
1	C	0	0	15.54	2	2
2	C	0	0	18.13	2	2
3	C	0	0	20.72	2	2
4	C	0	0	23.31	2	2
5	C	0	0	25.9	2	2
6	C	0	0	28.49	2	2
7	C	0	0	31.08	2	2
8	C	0	0	33.67	2	2
9	C	0	0	36.26	2	2
10	C	0	0	38.85	2	2
11	C	0	0	41.44	2	2
12	C	0	0	44.03	2	2
13	C	0	0	46.62	2	2
14	C	0	0	49.21	2	2
15	C	0	0	53.89	2	2
16	C	0	0	58.57	2	2
17	C	0	0	61.16	2	2
18	C	0	0	63.75	2	2
19	C	0	0	66.34	2	2
20	C	0	0	68.93	2	2
21	C	0	0	71.52	2	2
22	C	0	0	74.11	2	2
23	C	0	0	76.7	2	2
24	C	0	0	79.29	2	2
25	C	0	0	81.88	2	2
26	C	0	0	84.47	2	2
27	C	0	0	87.06	2	2
28	C	0	0	89.65	2	2
29	C	0	0	92.24	2	2
Atoms.SpeciesAndCoordinates>
Atoms.UnitVectors.Unit             AU #  Ang|AU
<Atoms.UnitVectors                     # unit=Ang.
  20.0   0.0     0.0
   0.0  20.0     0.0
   0.0   0.0  110.37
Atoms.UnitVectors>

#
# SCF or Electronic System
#

scf.XcType                 LDA         # LDA|LSDA-CA|LSDA-PW|GGA-PBE
scf.SpinPolarization       Off         # On|Off|NC
scf.partialCoreCorrection  On         # On|Off
scf.ElectronicTemperature  300.0       # default=300 (K)
scf.energycutoff           120.0       # default=150 (Ry)
scf.maxIter                250         # default=40
scf.EigenvalueSolver       Cluster     # DC|GDC|Cluster|Band
scf.Kgrid                  1 1 3       # means 4x4x4
scf.Mixing.Type           rmm-diisk    # Simple|Rmm-Diis|Gr-Pulay|Kerker|Rmm-Diisk
scf.Init.Mixing.Weight     0.30        # default=0.30 
scf.Min.Mixing.Weight      0.001       # default=0.001 
scf.Max.Mixing.Weight      0.400       # default=0.40 
scf.Mixing.History          20         # default=5
scf.Mixing.StartPulay       5          # default=6
scf.criterion             1.0e-12      # default=1.0e-6 (Hartree) 
scf.lapack.dste            dstevx      # dstegr|dstedc|dstevx, default=dstevx

#
# 1D FFT
#

1DFFT.NumGridK             900         # default=900
1DFFT.NumGridR             900         # default=900
1DFFT.EnergyCutoff        2200.0       # default=3600 (Ry)

#
# Orbital Optimization
#

orbitalOpt.Method           off        # Off|Unrestricted|Restricted
orbitalOpt.InitCoes     Symmetrical    # Symmetrical|Free
orbitalOpt.initPrefactor   0.1         # default=0.1
orbitalOpt.scf.maxIter      15         # default=12
orbitalOpt.MD.maxIter       10         # default=5
orbitalOpt.per.MDIter     10000        # default=1000000
orbitalOpt.criterion      1.0e-4       # default=1.0e-4 (Hartree/borh)^2

#
# output of contracted orbitals
#

CntOrb.fileout               off       # on|off, default=off
Num.CntOrb.Atoms              1        # default=1
<Atoms.Cont.Orbitals
 1
Atoms.Cont.Orbitals>
 
#
# SCF Order-N
#
 
orderN.HoppingRanges        7.0        # default=5.0 (Ang) 
orderN.NumHoppings           2         # default=2

#
# restart using *.rst
#

scf.restart                  on       # on|off, default=off

#
# MD or Geometry Optimization
#

MD.Type                   nomd         # Nomd|Opt|NVE|NVT_VS|NVT_NH
MD.maxIter                  1          # default=1
MD.TimeStep                1.0         # default=0.5 (fs)
MD.Opt.criterion          1.0e-4       # default=1.0e-4 (Hartree/bohr)

#
# MO output
#

MO.fileout                   off       # on|off, default=off
num.HOMOs                     1        # default=1
num.LUMOs                     1        # default=1

#
# DOS and PDOS
#

Dos.fileout                  off       # on|off, default=off
Dos.Erange              -20.0  20.0    # default = -20 (eV) 20 (eV) 
Dos.Kgrid                 1  1  1      # default = Kgrid1 Kgrid2 Kgrid3

HS.fileout ON




***********************************************************
***********************************************************

  Required cutoff energy (Ryd) for 3D-grids = 120.0000
      Used cutoff energy (Ryd) for 3D-grids = 157.9137, 157.9137, 157.5705
  Num. of grids of a-, b-, and c-axes = 80, 80, 441

  Num.Grid1.    80
  Num.Grid2.    80
  Num.Grid3.   441


  Cell_Volume =  44148.000000000000 (Bohr^3)
  GridVol     =      0.015642006803 (Bohr^3)
  Cell vectors (bohr) of the grid cell (gtv)
    gtv_a =  0.250000000000,  0.000000000000,  0.000000000000
    gtv_b =  0.000000000000,  0.250000000000,  0.000000000000
    gtv_c =  0.000000000000,  0.000000000000,  0.250272108844
    |gtv_a| =  0.250000000000
    |gtv_b| =  0.250000000000
    |gtv_c| =  0.250272108844

***********************************************************
***********************************************************


***********************************************************
***********************************************************
                  SCF history at MD= 1                    
***********************************************************
***********************************************************

   SCF=   1  NormRD=  1.000000000000  Uele= -56.313970364758
   SCF=   2  NormRD=  0.002765684192  Uele= -56.313852910301
   SCF=   3  NormRD=  0.017383608383  Uele= -56.313616739006
   SCF=   4  NormRD=  0.014181249578  Uele= -56.313686111477
   SCF=   5  NormRD=  0.006633153790  Uele= -56.313834578429
   SCF=   6  NormRD=  0.002292394738  Uele= -56.313858991763
   SCF=   7  NormRD=  0.000610033708  Uele= -56.313854528648
   SCF=   8  NormRD=  0.004177113153  Uele= -56.314048211579
   SCF=   9  NormRD=  0.004079153443  Uele= -56.314048819157
   SCF=  10  NormRD=  0.002031702234  Uele= -56.314061419744
   SCF=  11  NormRD=  0.000726961356  Uele= -56.314061366737
   SCF=  12  NormRD=  0.000321711571  Uele= -56.314057762637
   SCF=  13  NormRD=  0.000194592525  Uele= -56.313969472783
   SCF=  14  NormRD=  0.000188299695  Uele= -56.313978112298
   SCF=  15  NormRD=  0.002576409014  Uele= -56.313869235626
   SCF=  16  NormRD=  0.002363758716  Uele= -56.313877303299
   SCF=  17  NormRD=  0.001140777388  Uele= -56.313923998695
   SCF=  18  NormRD=  0.000074806121  Uele= -56.313936815282
   SCF=  19  NormRD=  0.000038703347  Uele= -56.313933905249
   SCF=  20  NormRD=  0.000041948549  Uele= -56.313937560668
   SCF=  21  NormRD=  0.000006608649  Uele= -56.313936190912
   SCF=  22  NormRD=  0.000005450325  Uele= -56.313936398587
   SCF=  23  NormRD=  0.000011775130  Uele= -56.313951127109
   SCF=  24  NormRD=  0.000011348845  Uele= -56.313951141571
   SCF=  25  NormRD=  0.000011007535  Uele= -56.313951153154
   SCF=  26  NormRD=  0.000010679959  Uele= -56.313951164210
   SCF=  27  NormRD=  0.000010366059  Uele= -56.313951174784
   SCF=  28  NormRD=  0.000004511814  Uele= -56.313949559377
   SCF=  29  NormRD=  0.000004051294  Uele= -56.313949569540
   SCF=  30  NormRD=  0.000003956876  Uele= -56.313949571484
   SCF=  31  NormRD=  0.000003866410  Uele= -56.313949573251
   SCF=  32  NormRD=  0.000003777950  Uele= -56.313949575011
   SCF=  33  NormRD=  0.000002714461  Uele= -56.313948837085
   SCF=  34  NormRD=  0.000002606595  Uele= -56.313948833155
   SCF=  35  NormRD=  0.000002506537  Uele= -56.313948829396
   SCF=  36  NormRD=  0.000002410499  Uele= -56.313948825785
   SCF=  37  NormRD=  0.000002321753  Uele= -56.313948822276
   SCF=  38  NormRD=  0.000001381932  Uele= -56.313948981574
   SCF=  39  NormRD=  0.000001349369  Uele= -56.313948981265
   SCF=  40  NormRD=  0.000001317846  Uele= -56.313948980749
   SCF=  41  NormRD=  0.000001286068  Uele= -56.313948980278
   SCF=  42  NormRD=  0.000001256140  Uele= -56.313948979797
   SCF=  43  NormRD=  0.000002713866  Uele= -56.313948833158
   SCF=  44  NormRD=  0.000002650305  Uele= -56.313948833015
   SCF=  45  NormRD=  0.000002588879  Uele= -56.313948833019
   SCF=  46  NormRD=  0.000002528917  Uele= -56.313948832925
   SCF=  47  NormRD=  0.000002469773  Uele= -56.313948832857
   SCF=  48  NormRD=  0.000000915764  Uele= -56.313948629095
   SCF=  49  NormRD=  0.000000881930  Uele= -56.313948627998
   SCF=  50  NormRD=  0.000000852497  Uele= -56.313948627019
   SCF=  51  NormRD=  0.000000821286  Uele= -56.313948626018
   SCF=  52  NormRD=  0.000000791401  Uele= -56.313948625026
   SCF=  53  NormRD=  0.000000433188  Uele= -56.313948954593
   SCF=  54  NormRD=  0.000000418699  Uele= -56.313948955019
   SCF=  55  NormRD=  0.000000404797  Uele= -56.313948955429
   SCF=  56  NormRD=  0.000000391446  Uele= -56.313948955811
   SCF=  57  NormRD=  0.000000378634  Uele= -56.313948956175
   SCF=  58  NormRD=  0.000000070217  Uele= -56.313948849111
   SCF=  59  NormRD=  0.000000067978  Uele= -56.313948849230
   SCF=  60  NormRD=  0.000000065928  Uele= -56.313948849295
   SCF=  61  NormRD=  0.000000063389  Uele= -56.313948849270
   SCF=  62  NormRD=  0.000000061684  Uele= -56.313948849396
   SCF=  63  NormRD=  0.000000032010  Uele= -56.313948855495
   SCF=  64  NormRD=  0.000000031212  Uele= -56.313948855491
   SCF=  65  NormRD=  0.000000030052  Uele= -56.313948855540
   SCF=  66  NormRD=  0.000000029411  Uele= -56.313948855547
   SCF=  67  NormRD=  0.000000028803  Uele= -56.313948855548
   SCF=  68  NormRD=  0.000000080419  Uele= -56.313948853754
   SCF=  69  NormRD=  0.000000078364  Uele= -56.313948853792
   SCF=  70  NormRD=  0.000000076336  Uele= -56.313948853817
   SCF=  71  NormRD=  0.000000074398  Uele= -56.313948853852
   SCF=  72  NormRD=  0.000000072515  Uele= -56.313948853884
   SCF=  73  NormRD=  0.000000054530  Uele= -56.313948833487
   SCF=  74  NormRD=  0.000000053454  Uele= -56.313948833463
   SCF=  75  NormRD=  0.000000052063  Uele= -56.313948833443
   SCF=  76  NormRD=  0.000000050720  Uele= -56.313948833418
   SCF=  77  NormRD=  0.000000049630  Uele= -56.313948833397
   SCF=  78  NormRD=  0.000000023888  Uele= -56.313948838419
   SCF=  79  NormRD=  0.000000023031  Uele= -56.313948838387
   SCF=  80  NormRD=  0.000000022012  Uele= -56.313948838379
   SCF=  81  NormRD=  0.000000021234  Uele= -56.313948838351
   SCF=  82  NormRD=  0.000000020490  Uele= -56.313948838324
   SCF=  83  NormRD=  0.000000030265  Uele= -56.313948848201
   SCF=  84  NormRD=  0.000000028979  Uele= -56.313948848230
   SCF=  85  NormRD=  0.000000028220  Uele= -56.313948848263
   SCF=  86  NormRD=  0.000000027276  Uele= -56.313948848285
   SCF=  87  NormRD=  0.000000026404  Uele= -56.313948848272
   SCF=  88  NormRD=  0.000000014584  Uele= -56.313948845432
   SCF=  89  NormRD=  0.000000014047  Uele= -56.313948845453
   SCF=  90  NormRD=  0.000000013533  Uele= -56.313948845475
   SCF=  91  NormRD=  0.000000013042  Uele= -56.313948845495
   SCF=  92  NormRD=  0.000000012572  Uele= -56.313948845515
   SCF=  93  NormRD=  0.000000017274  Uele= -56.313948843790
   SCF=  94  NormRD=  0.000000016862  Uele= -56.313948843783
   SCF=  95  NormRD=  0.000000016461  Uele= -56.313948843777
   SCF=  96  NormRD=  0.000000016070  Uele= -56.313948843772
   SCF=  97  NormRD=  0.000000016609  Uele= -56.313948843724
   SCF=  98  NormRD=  0.000000030145  Uele= -56.313948836593
   SCF=  99  NormRD=  0.000000029287  Uele= -56.313948836559
   SCF= 100  NormRD=  0.000000028474  Uele= -56.313948836539
   SCF= 101  NormRD=  0.000000027697  Uele= -56.313948836518
   SCF= 102  NormRD=  0.000000026942  Uele= -56.313948836499
   SCF= 103  NormRD=  0.000000005862  Uele= -56.313948843158
   SCF= 104  NormRD=  0.000000005766  Uele= -56.313948843157

*******************************************************
        Total energy (Hartree) at MD = 1        
*******************************************************

  Uele.        -56.313948843157

  Ukin.        107.315215298706
  UH0.        -444.206864922722
  UH1.           0.336539679098
  Una.        -129.294686397084
  Unl.          20.671579727349
  Uxc0.        -26.543771686445
  Uxc1.        -26.543771686445
  Ucore.       329.811430478761
  Uhub.          0.000000000000
  Ucs.           0.000000000000
  Uzs.           0.000000000000
  Uzo.           0.000000000000
  Uef.           0.000000000000
  Utot.       -168.454329508783

  Note:

  Utot = Ukin+UH0+UH1+Una+Unl+Uxc0+Uxc1+Ucore+Uhub+Ucs+Uzs+Uzo+Uef

  Uene:   band energy
  Ukin:   kinetic energy
  UH0:    electric part of screened Coulomb energy
  UH1:    difference electron-electron Coulomb energy
  Una:    neutral atom potential energy
  Unl:    non-local potential energy
  Uxc0:   exchange-correlation energy for alpha spin
  Uxc1:   exchange-correlation energy for beta spin
  Ucore:  core-core Coulomb energy
  Uhub:   LDA+U energy
  Ucs:    constraint energy for spin orientation
  Uzs:    Zeeman term for spin magnetic moment
  Uzo:    Zeeman term for orbital magnetic moment
  Uef:    electric energy by electric field

  (see also PRB 72, 045121(2005) for the energy contributions)



  Chemical potential (Hartree)      -0.231955912864

***********************************************************
***********************************************************
           Eigenvalues (Hartree) for SCF KS-eq.           
***********************************************************
***********************************************************

   Chemical Potential (Hartree) =  -0.23195591286416
   Number of States             = 115.99999999999991
   HOMO = 59
   Eigenvalues
                Up-spin            Down-spin
          1  -0.78536983290318  -0.78536983290318
          2  -0.78534239210496  -0.78534239210496
          3  -0.77820439687520  -0.77820439687520
          4  -0.77820017145920  -0.77820017145920
          5  -0.76589455734863  -0.76589455734863
          6  -0.76588608160563  -0.76588608160563
          7  -0.75030874489435  -0.75030874489435
          8  -0.75030429270834  -0.75030429270834
          9  -0.73139795966345  -0.73139795966345
         10  -0.73138749866975  -0.73138749866975
         11  -0.70958327718933  -0.70958327718933
         12  -0.70956082997368  -0.70956082997368
         13  -0.68622216117538  -0.68622216117538
         14  -0.68617899260900  -0.68617899260900
         15  -0.66154394826030  -0.66154394826030
         16  -0.66146817710490  -0.66146817710490
         17  -0.63380941562631  -0.63380941562631
         18  -0.63369233170386  -0.63369233170386
         19  -0.60575119932697  -0.60575119932697
         20  -0.60556184332180  -0.60556184332180
         21  -0.57982063924685  -0.57982063924685
         22  -0.57952294316541  -0.57952294316541
         23  -0.55885572807438  -0.55885572807438
         24  -0.55845960139226  -0.55845960139226
         25  -0.54567356580717  -0.54567356580717
         26  -0.54540966236331  -0.54540966236331
         27  -0.53461115644039  -0.53461115644039
         28  -0.39343570474850  -0.39343570474850
         29  -0.39343570473695  -0.39343570473695
         30  -0.39343452343824  -0.39343452343824
         31  -0.39343452342805  -0.39343452342805
         32  -0.38044423423153  -0.38044423423153
         33  -0.38044423422933  -0.38044423422933
         34  -0.38043808447272  -0.38043808447272
         35  -0.38043808446057  -0.38043808446057
         36  -0.36109082771434  -0.36109082771434
         37  -0.36109082770057  -0.36109082770057
         38  -0.36106968504135  -0.36106968504135
         39  -0.36106968503749  -0.36106968503749
         40  -0.34165779536817  -0.34165779536817
         41  -0.33600066517286  -0.33600066517286
         42  -0.33600066516965  -0.33600066516965
         43  -0.33593730176519  -0.33593730176519
         44  -0.33593730175855  -0.33593730175855
         45  -0.30564508966683  -0.30564508966683
         46  -0.30564508965967  -0.30564508965967
         47  -0.30545540300335  -0.30545540300335
         48  -0.30545540299281  -0.30545540299281
         49  -0.28288197048401  -0.28288197048401
         50  -0.27065065052889  -0.27065065052889
         51  -0.27065065050471  -0.27065065050471
         52  -0.26997038897160  -0.26997038897160
         53  -0.26997038896232  -0.26997038896232
         54  -0.26133945629476  -0.26133945629476
         55  -0.26133930682490  -0.26133930682490
         56  -0.23634099626663  -0.23634099626663
         57  -0.23634099625722  -0.23634099625722
         58  -0.23199306290219  -0.23199306290219
         59  -0.23199306287444  -0.23199306287444
         60  -0.22182926883887  -0.22182926883887
         61  -0.22182926879783  -0.22182926879783
         62  -0.18892963965359  -0.18892963965359
         63  -0.18892963963845  -0.18892963963845
         64  -0.18697743265549  -0.18697743265549
         65  -0.18697743264087  -0.18697743264087
         66  -0.15365360375188  -0.15365360375188
         67  -0.13792846009538  -0.13792846009538
         68  -0.13792846007742  -0.13792846007742
         69  -0.13668423008966  -0.13668423008966
         70  -0.13668423006620  -0.13668423006620
         71  -0.08435892056567  -0.08435892056567
         72  -0.08435892053097  -0.08435892053097
         73  -0.08320078061014  -0.08320078061014
         74  -0.08320078058764  -0.08320078058764
         75  -0.03039388355947  -0.03039388355947
         76  -0.03039388355291  -0.03039388355291
         77  -0.02919875517464  -0.02919875517464
         78  -0.02919875516922  -0.02919875516922
         79   0.00477109317768   0.00477109317768
         80   0.00488986480525   0.00488986480525
         81   0.02074315873323   0.02074315873323
         82   0.02074315873772   0.02074315873772
         83   0.02193086509087   0.02193086509087
         84   0.02193086511736   0.02193086511736
         85   0.03108623019539   0.03108623019539
         86   0.03146772426227   0.03146772426227
         87   0.06396898328169   0.06396898328169
         88   0.06396898330050   0.06396898330050
         89   0.06486791920787   0.06486791920787
         90   0.06486791922945   0.06486791922945
         91   0.06776304548373   0.06776304548373
         92   0.06845374151160   0.06845374151160
         93   0.07566487820321   0.07566487820321
         94   0.07568715896976   0.07568715896976
         95   0.08541722316684   0.08541722316684
         96   0.08547951040787   0.08547951040787
         97   0.09241980157097   0.09241980157097
         98   0.09241980157753   0.09241980157753
         99   0.09272082797860   0.09272082797860
        100   0.09272082798472   0.09272082798472
        101   0.09795953443842   0.09795953443842
        102   0.09842510324454   0.09842510324454
        103   0.11007371889146   0.11007371889146
        104   0.11089950781893   0.11089950781893
        105   0.11544054303990   0.11544054303990
        106   0.11612215911561   0.11612215911561
        107   0.13537822789944   0.13537822789944
        108   0.13677492175212   0.13677492175212
        109   0.14332606325587   0.14332606325587
        110   0.14467528612501   0.14467528612501
        111   0.15895737869897   0.15895737869897
        112   0.15989737160950   0.15989737160950
        113   0.16368130291702   0.16368130291702
        114   0.16491017190697   0.16491017190697
        115   0.18282561924496   0.18282561924496
        116   0.18645601034219   0.18645601034219
        117   0.18646059051083   0.18646059051083
        118   0.18650198532861   0.18650198532861

***********************************************************
***********************************************************
                   Mulliken populations                    
***********************************************************
***********************************************************

  Total spin S =  0.000000000000

                    Up spin      Down spin     Sum           Diff
      1    C      2.178939092  2.178939092   4.357878185   0.000000000
      2    C      2.022278215  2.022278215   4.044556431   0.000000000
      3    C      1.921964613  1.921964613   3.843929226   0.000000000
      4    C      1.961397300  1.961397300   3.922794601   0.000000000
      5    C      1.971020267  1.971020267   3.942040533   0.000000000
      6    C      1.972763441  1.972763441   3.945526881   0.000000000
      7    C      1.980070989  1.980070989   3.960141979   0.000000000
      8    C      1.978999061  1.978999061   3.957998122   0.000000000
      9    C      1.976243839  1.976243839   3.952487678   0.000000000
     10    C      1.974683852  1.974683852   3.949367703   0.000000000
     11    C      1.971258364  1.971258364   3.942516729   0.000000000
     12    C      1.928138982  1.928138982   3.856277965   0.000000000
     13    C      1.957611821  1.957611821   3.915223642   0.000000000
     14    C      2.229135699  2.229135699   4.458271397   0.000000000
     15    C      1.950988939  1.950988939   3.901977878   0.000000000
     16    C      2.229135699  2.229135699   4.458271398   0.000000000
     17    C      1.957611820  1.957611820   3.915223639   0.000000000
     18    C      1.928138983  1.928138983   3.856277965   0.000000000
     19    C      1.971258365  1.971258365   3.942516730   0.000000000
     20    C      1.974683852  1.974683852   3.949367704   0.000000000
     21    C      1.976243839  1.976243839   3.952487679   0.000000000
     22    C      1.978999060  1.978999060   3.957998120   0.000000000
     23    C      1.980070989  1.980070989   3.960141977   0.000000000
     24    C      1.972763439  1.972763439   3.945526878   0.000000000
     25    C      1.971020265  1.971020265   3.942040530   0.000000000
     26    C      1.961397299  1.961397299   3.922794598   0.000000000
     27    C      1.921964613  1.921964613   3.843929226   0.000000000
     28    C      2.022278213  2.022278213   4.044556427   0.000000000
     29    C      2.178939089  2.178939089   4.357878179   0.000000000

 Sum of MulP: up   =    58.00000 down          =    58.00000
              total=   116.00000 ideal(neutral)=   116.00000


  Decomposed Mulliken populations

    1    C          Up spin      Down spin     Sum           Diff
            multiple
  s           0    0.909130331  0.909130331   1.818260663   0.000000000
   sum over m      0.909130331  0.909130331   1.818260663   0.000000000
  s           1   -0.006939542 -0.006939542  -0.013879084   0.000000000
   sum over m     -0.006939542 -0.006939542  -0.013879084   0.000000000
  s           2    0.001352073  0.001352073   0.002704146   0.000000000
   sum over m      0.001352073  0.001352073   0.002704146   0.000000000
   sum over m+mul  0.903542862  0.903542862   1.807085724   0.000000000
  px          0    0.304286255  0.304286255   0.608572509   0.000000000
  py          0    0.304286255  0.304286255   0.608572511   0.000000000
  pz          0    0.641009976  0.641009976   1.282019952   0.000000000
   sum over m      1.249582486  1.249582486   2.499164972   0.000000000
  px          1   -0.000025087 -0.000025087  -0.000050174   0.000000000
  py          1   -0.000025087 -0.000025087  -0.000050174   0.000000000
  pz          1   -0.011711081 -0.011711081  -0.023422161   0.000000000
   sum over m     -0.011761255 -0.011761255  -0.023522509   0.000000000
  px          2   -0.000466233 -0.000466233  -0.000932467   0.000000000
  py          2   -0.000466233 -0.000466233  -0.000932467   0.000000000
  pz          2    0.000634345  0.000634345   0.001268690   0.000000000
   sum over m     -0.000298122 -0.000298122  -0.000596243   0.000000000
   sum over m+mul  1.237523110  1.237523110   2.475046220   0.000000000
  d3z^2-r^2   0    0.001400593  0.001400593   0.002801185   0.000000000
  dx^2-y^2    0    0.000000000  0.000000000   0.000000000   0.000000000
  dxy         0    0.000000000  0.000000000   0.000000000   0.000000000
  dxz         0    0.018236264  0.018236264   0.036472528   0.000000000
  dyz         0    0.018236264  0.018236264   0.036472528   0.000000000
   sum over m      0.037873120  0.037873120   0.075746241   0.000000000
   sum over m+mul  0.037873120  0.037873120   0.075746241   0.000000000

    2    C          Up spin      Down spin     Sum           Diff
            multiple
  s           0    0.753289031  0.753289031   1.506578062   0.000000000
   sum over m      0.753289031  0.753289031   1.506578062   0.000000000
  s           1    0.013349243  0.013349243   0.026698487   0.000000000
   sum over m      0.013349243  0.013349243   0.026698487   0.000000000
  s           2    0.001841383  0.001841383   0.003682766   0.000000000
   sum over m      0.001841383  0.001841383   0.003682766   0.000000000
   sum over m+mul  0.768479657  0.768479657   1.536959314   0.000000000
  px          0    0.444724873  0.444724873   0.889449746   0.000000000
  py          0    0.444724873  0.444724873   0.889449747   0.000000000
  pz          0    0.309290882  0.309290882   0.618581763   0.000000000
   sum over m      1.198740628  1.198740628   2.397481256   0.000000000
  px          1   -0.011343311 -0.011343311  -0.022686623   0.000000000
  py          1   -0.011343311 -0.011343311  -0.022686623   0.000000000
  pz          1    0.041257692  0.041257692   0.082515384   0.000000000
   sum over m      0.018571070  0.018571070   0.037142139   0.000000000
  px          2   -0.002735402 -0.002735402  -0.005470804   0.000000000
  py          2   -0.002735402 -0.002735402  -0.005470804   0.000000000
  pz          2   -0.014316229 -0.014316229  -0.028632458   0.000000000
   sum over m     -0.019787033 -0.019787033  -0.039574066   0.000000000
   sum over m+mul  1.197524665  1.197524665   2.395049330   0.000000000
  d3z^2-r^2   0   -0.001016592 -0.001016592  -0.002033183   0.000000000
  dx^2-y^2    0    0.000000000  0.000000000   0.000000000   0.000000000
  dxy         0    0.000000000  0.000000000   0.000000000   0.000000000
  dxz         0    0.028645242  0.028645242   0.057290485   0.000000000
  dyz         0    0.028645243  0.028645243   0.057290485   0.000000000
   sum over m      0.056273893  0.056273893   0.112547787   0.000000000
   sum over m+mul  0.056273893  0.056273893   0.112547787   0.000000000

    3    C          Up spin      Down spin     Sum           Diff
            multiple
  s           0    0.770094014  0.770094014   1.540188027   0.000000000
   sum over m      0.770094014  0.770094014   1.540188027   0.000000000
  s           1   -0.011237187 -0.011237187  -0.022474373   0.000000000
   sum over m     -0.011237187 -0.011237187  -0.022474373   0.000000000
  s           2    0.002281853  0.002281853   0.004563707   0.000000000
   sum over m      0.002281853  0.002281853   0.004563707   0.000000000
   sum over m+mul  0.761138680  0.761138680   1.522277361   0.000000000
  px          0    0.428454344  0.428454344   0.856908688   0.000000000
  py          0    0.428454344  0.428454344   0.856908688   0.000000000
  pz          0    0.305316534  0.305316534   0.610633069   0.000000000
   sum over m      1.162225223  1.162225223   2.324450446   0.000000000
  px          1   -0.009989507 -0.009989507  -0.019979013   0.000000000
  py          1   -0.009989507 -0.009989507  -0.019979013   0.000000000
  pz          1   -0.091992865 -0.091992865  -0.183985730   0.000000000
   sum over m     -0.111971878 -0.111971878  -0.223943756   0.000000000
  px          2   -0.002025712 -0.002025712  -0.004051424   0.000000000
  py          2   -0.002025712 -0.002025712  -0.004051424   0.000000000
  pz          2   -0.005831259 -0.005831259  -0.011662518   0.000000000
   sum over m     -0.009882683 -0.009882683  -0.019765366   0.000000000
   sum over m+mul  1.040370662  1.040370662   2.080741323   0.000000000
  d3z^2-r^2   0   -0.016443106 -0.016443106  -0.032886213   0.000000000
  dx^2-y^2    0    0.000000000  0.000000000   0.000000000   0.000000000
  dxy         0    0.000000000  0.000000000   0.000000000   0.000000000
  dxz         0    0.068449189  0.068449189   0.136898377   0.000000000
  dyz         0    0.068449189  0.068449189   0.136898377   0.000000000
   sum over m      0.120455271  0.120455271   0.240910542   0.000000000
   sum over m+mul  0.120455271  0.120455271   0.240910542   0.000000000

    4    C          Up spin      Down spin     Sum           Diff
            multiple
  s           0    0.761513348  0.761513348   1.523026697   0.000000000
   sum over m      0.761513348  0.761513348   1.523026697   0.000000000
  s           1   -0.011464378 -0.011464378  -0.022928757   0.000000000
   sum over m     -0.011464378 -0.011464378  -0.022928757   0.000000000
  s           2    0.002884370  0.002884370   0.005768740   0.000000000
   sum over m      0.002884370  0.002884370   0.005768740   0.000000000
   sum over m+mul  0.752933340  0.752933340   1.505866680   0.000000000
  px          0    0.453732073  0.453732073   0.907464147   0.000000000
  py          0    0.453732074  0.453732074   0.907464147   0.000000000
  pz          0    0.311304582  0.311304582   0.622609165   0.000000000
   sum over m      1.218768729  1.218768729   2.437537458   0.000000000
  px          1   -0.006681992 -0.006681992  -0.013363984   0.000000000
  py          1   -0.006681992 -0.006681992  -0.013363984   0.000000000
  pz          1   -0.081768928 -0.081768928  -0.163537857   0.000000000
   sum over m     -0.095132912 -0.095132912  -0.190265825   0.000000000
  px          2   -0.003104481 -0.003104481  -0.006208961   0.000000000
  py          2   -0.003104481 -0.003104481  -0.006208962   0.000000000
  pz          2    0.004171069  0.004171069   0.008342139   0.000000000
   sum over m     -0.002037892 -0.002037892  -0.004075784   0.000000000
   sum over m+mul  1.121597925  1.121597925   2.243195850   0.000000000
  d3z^2-r^2   0   -0.018675127 -0.018675127  -0.037350254   0.000000000
  dx^2-y^2    0    0.000000000  0.000000000   0.000000000   0.000000000
  dxy         0    0.000000000  0.000000000   0.000000000   0.000000000
  dxz         0    0.052770581  0.052770581   0.105541163   0.000000000
  dyz         0    0.052770581  0.052770581   0.105541163   0.000000000
   sum over m      0.086866036  0.086866036   0.173732071   0.000000000
   sum over m+mul  0.086866036  0.086866036   0.173732071   0.000000000

    5    C          Up spin      Down spin     Sum           Diff
            multiple
  s           0    0.771138244  0.771138244   1.542276488   0.000000000
   sum over m      0.771138244  0.771138244   1.542276488   0.000000000
  s           1   -0.011546160 -0.011546160  -0.023092319   0.000000000
   sum over m     -0.011546160 -0.011546160  -0.023092319   0.000000000
  s           2    0.002508386  0.002508386   0.005016772   0.000000000
   sum over m      0.002508386  0.002508386   0.005016772   0.000000000
   sum over m+mul  0.762100470  0.762100470   1.524200941   0.000000000
  px          0    0.442057660  0.442057660   0.884115319   0.000000000
  py          0    0.442057660  0.442057660   0.884115321   0.000000000
  pz          0    0.319032076  0.319032076   0.638064152   0.000000000
   sum over m      1.203147396  1.203147396   2.406294792   0.000000000
  px          1   -0.008364113 -0.008364113  -0.016728226   0.000000000
  py          1   -0.008364113 -0.008364113  -0.016728225   0.000000000
  pz          1   -0.080819954 -0.080819954  -0.161639908   0.000000000
   sum over m     -0.097548179 -0.097548179  -0.195096359   0.000000000
  px          2   -0.002556502 -0.002556502  -0.005113004   0.000000000
  py          2   -0.002556502 -0.002556502  -0.005113004   0.000000000
  pz          2    0.001180427  0.001180427   0.002360854   0.000000000
   sum over m     -0.003932577 -0.003932577  -0.007865153   0.000000000
   sum over m+mul  1.101666640  1.101666640   2.203333280   0.000000000
  d3z^2-r^2   0   -0.019153316 -0.019153316  -0.038306631   0.000000000
  dx^2-y^2    0    0.000000000  0.000000000   0.000000000   0.000000000
  dxy         0    0.000000000  0.000000000   0.000000000   0.000000000
  dxz         0    0.063203236  0.063203236   0.126406472   0.000000000
  dyz         0    0.063203236  0.063203236   0.126406472   0.000000000
   sum over m      0.107253156  0.107253156   0.214506312   0.000000000
   sum over m+mul  0.107253156  0.107253156   0.214506312   0.000000000

    6    C          Up spin      Down spin     Sum           Diff
            multiple
  s           0    0.769222091  0.769222091   1.538444181   0.000000000
   sum over m      0.769222091  0.769222091   1.538444181   0.000000000
  s           1   -0.012279724 -0.012279724  -0.024559448   0.000000000
   sum over m     -0.012279724 -0.012279724  -0.024559448   0.000000000
  s           2    0.002691091  0.002691091   0.005382182   0.000000000
   sum over m      0.002691091  0.002691091   0.005382182   0.000000000
   sum over m+mul  0.759633458  0.759633458   1.519266916   0.000000000
  px          0    0.451475930  0.451475930   0.902951859   0.000000000
  py          0    0.451475930  0.451475930   0.902951860   0.000000000
  pz          0    0.316044122  0.316044122   0.632088244   0.000000000
   sum over m      1.218995982  1.218995982   2.437991963   0.000000000
  px          1   -0.006827501 -0.006827501  -0.013655002   0.000000000
  py          1   -0.006827501 -0.006827501  -0.013655002   0.000000000
  pz          1   -0.080507338 -0.080507338  -0.161014675   0.000000000
   sum over m     -0.094162339 -0.094162339  -0.188324679   0.000000000
  px          2   -0.002937462 -0.002937462  -0.005874924   0.000000000
  py          2   -0.002937462 -0.002937462  -0.005874924   0.000000000
  pz          2    0.001417061  0.001417061   0.002834123   0.000000000
   sum over m     -0.004457863 -0.004457863  -0.008915725   0.000000000
   sum over m+mul  1.120375779  1.120375779   2.240751559   0.000000000
  d3z^2-r^2   0   -0.020016755 -0.020016755  -0.040033510   0.000000000
  dx^2-y^2    0    0.000000000  0.000000000   0.000000000   0.000000000
  dxy         0    0.000000000  0.000000000   0.000000000   0.000000000
  dxz         0    0.056385479  0.056385479   0.112770959   0.000000000
  dyz         0    0.056385479  0.056385479   0.112770958   0.000000000
   sum over m      0.092754204  0.092754204   0.185508407   0.000000000
   sum over m+mul  0.092754204  0.092754204   0.185508407   0.000000000

    7    C          Up spin      Down spin     Sum           Diff
            multiple
  s           0    0.772350196  0.772350196   1.544700392   0.000000000
   sum over m      0.772350196  0.772350196   1.544700392   0.000000000
  s           1   -0.011866402 -0.011866402  -0.023732803   0.000000000
   sum over m     -0.011866402 -0.011866402  -0.023732803   0.000000000
  s           2    0.002571900  0.002571900   0.005143800   0.000000000
   sum over m      0.002571900  0.002571900   0.005143800   0.000000000
   sum over m+mul  0.763055694  0.763055694   1.526111388   0.000000000
  px          0    0.446392385  0.446392385   0.892784770   0.000000000
  py          0    0.446392385  0.446392385   0.892784770   0.000000000
  pz          0    0.320612937  0.320612937   0.641225875   0.000000000
   sum over m      1.213397707  1.213397707   2.426795415   0.000000000
  px          1   -0.007829228 -0.007829228  -0.015658456   0.000000000
  py          1   -0.007829228 -0.007829228  -0.015658456   0.000000000
  pz          1   -0.079557831 -0.079557831  -0.159115661   0.000000000
   sum over m     -0.095216287 -0.095216287  -0.190432574   0.000000000
  px          2   -0.002703900 -0.002703900  -0.005407799   0.000000000
  py          2   -0.002703900 -0.002703900  -0.005407799   0.000000000
  pz          2    0.001320389  0.001320389   0.002640779   0.000000000
   sum over m     -0.004087410 -0.004087410  -0.008174820   0.000000000
   sum over m+mul  1.114094011  1.114094011   2.228188021   0.000000000
  d3z^2-r^2   0   -0.019646431 -0.019646431  -0.039292861   0.000000000
  dx^2-y^2    0    0.000000000  0.000000000   0.000000000   0.000000000
  dxy         0    0.000000000  0.000000000   0.000000000   0.000000000
  dxz         0    0.061283858  0.061283858   0.122567715   0.000000000
  dyz         0    0.061283858  0.061283858   0.122567715   0.000000000
   sum over m      0.102921285  0.102921285   0.205842569   0.000000000
   sum over m+mul  0.102921285  0.102921285   0.205842569   0.000000000

    8    C          Up spin      Down spin     Sum           Diff
            multiple
  s           0    0.771403714  0.771403714   1.542807428   0.000000000
   sum over m      0.771403714  0.771403714   1.542807428   0.000000000
  s           1   -0.011903945 -0.011903945  -0.023807890   0.000000000
   sum over m     -0.011903945 -0.011903945  -0.023807890   0.000000000
  s           2    0.002626454  0.002626454   0.005252909   0.000000000
   sum over m      0.002626454  0.002626454   0.005252909   0.000000000
   sum over m+mul  0.762126223  0.762126223   1.524252446   0.000000000
  px          0    0.449287561  0.449287561   0.898575122   0.000000000
  py          0    0.449287561  0.449287561   0.898575123   0.000000000
  pz          0    0.319308587  0.319308587   0.638617174   0.000000000
   sum over m      1.217883709  1.217883709   2.435767419   0.000000000
  px          1   -0.007191410 -0.007191410  -0.014382820   0.000000000
  py          1   -0.007191410 -0.007191410  -0.014382820   0.000000000
  pz          1   -0.079960201 -0.079960201  -0.159920402   0.000000000
   sum over m     -0.094343021 -0.094343021  -0.188686042   0.000000000
  px          2   -0.002830384 -0.002830384  -0.005660769   0.000000000
  py          2   -0.002830384 -0.002830384  -0.005660769   0.000000000
  pz          2    0.001275172  0.001275172   0.002550343   0.000000000
   sum over m     -0.004385597 -0.004385597  -0.008771194   0.000000000
   sum over m+mul  1.119155092  1.119155092   2.238310183   0.000000000
  d3z^2-r^2   0   -0.019592103 -0.019592103  -0.039184207   0.000000000
  dx^2-y^2    0    0.000000000  0.000000000   0.000000000   0.000000000
  dxy         0    0.000000000  0.000000000   0.000000000   0.000000000
  dxz         0    0.058654925  0.058654925   0.117309850   0.000000000
  dyz         0    0.058654925  0.058654925   0.117309850   0.000000000
   sum over m      0.097717747  0.097717747   0.195435493   0.000000000
   sum over m+mul  0.097717747  0.097717747   0.195435493   0.000000000

    9    C          Up spin      Down spin     Sum           Diff
            multiple
  s           0    0.770865045  0.770865045   1.541730090   0.000000000
   sum over m      0.770865045  0.770865045   1.541730090   0.000000000
  s           1   -0.012282589 -0.012282589  -0.024565178   0.000000000
   sum over m     -0.012282589 -0.012282589  -0.024565178   0.000000000
  s           2    0.002639428  0.002639428   0.005278857   0.000000000
   sum over m      0.002639428  0.002639428   0.005278857   0.000000000
   sum over m+mul  0.761221884  0.761221884   1.522443769   0.000000000
  px          0    0.449387690  0.449387690   0.898775381   0.000000000
  py          0    0.449387690  0.449387690   0.898775381   0.000000000
  pz          0    0.316763142  0.316763142   0.633526284   0.000000000
   sum over m      1.215538523  1.215538523   2.431077046   0.000000000
  px          1   -0.007478331 -0.007478331  -0.014956661   0.000000000
  py          1   -0.007478331 -0.007478331  -0.014956661   0.000000000
  pz          1   -0.080076482 -0.080076482  -0.160152964   0.000000000
   sum over m     -0.095033143 -0.095033143  -0.190066286   0.000000000
  px          2   -0.002800112 -0.002800112  -0.005600224   0.000000000
  py          2   -0.002800112 -0.002800112  -0.005600224   0.000000000
  pz          2    0.001265430  0.001265430   0.002530861   0.000000000
   sum over m     -0.004334794 -0.004334794  -0.008669588   0.000000000
   sum over m+mul  1.116170586  1.116170586   2.232341172   0.000000000
  d3z^2-r^2   0   -0.019762595 -0.019762595  -0.039525189   0.000000000
  dx^2-y^2    0    0.000000000  0.000000000   0.000000000   0.000000000
  dxy         0    0.000000000  0.000000000   0.000000000   0.000000000
  dxz         0    0.059306982  0.059306982   0.118613964   0.000000000
  dyz         0    0.059306982  0.059306982   0.118613964   0.000000000
   sum over m      0.098851369  0.098851369   0.197702738   0.000000000
   sum over m+mul  0.098851369  0.098851369   0.197702738   0.000000000

   10    C          Up spin      Down spin     Sum           Diff
            multiple
  s           0    0.770084164  0.770084164   1.540168328   0.000000000
   sum over m      0.770084164  0.770084164   1.540168328   0.000000000
  s           1   -0.011927232 -0.011927232  -0.023854465   0.000000000
   sum over m     -0.011927232 -0.011927232  -0.023854465   0.000000000
  s           2    0.002568130  0.002568130   0.005136260   0.000000000
   sum over m      0.002568130  0.002568130   0.005136260   0.000000000
   sum over m+mul  0.760725061  0.760725061   1.521450123   0.000000000
  px          0    0.446348168  0.446348168   0.892696336   0.000000000
  py          0    0.446348168  0.446348168   0.892696337   0.000000000
  pz          0    0.320321169  0.320321169   0.640642337   0.000000000
   sum over m      1.213017505  1.213017505   2.426035010   0.000000000
  px          1   -0.007607671 -0.007607671  -0.015215342   0.000000000
  py          1   -0.007607671 -0.007607671  -0.015215342   0.000000000
  pz          1   -0.080183947 -0.080183947  -0.160367893   0.000000000
   sum over m     -0.095399289 -0.095399289  -0.190798577   0.000000000
  px          2   -0.002690085 -0.002690085  -0.005380170   0.000000000
  py          2   -0.002690085 -0.002690085  -0.005380170   0.000000000
  pz          2    0.001329231  0.001329231   0.002658462   0.000000000
   sum over m     -0.004050939 -0.004050939  -0.008101878   0.000000000
   sum over m+mul  1.113567277  1.113567277   2.227134555   0.000000000
  d3z^2-r^2   0   -0.020063654 -0.020063654  -0.040127307   0.000000000
  dx^2-y^2    0    0.000000000  0.000000000   0.000000000   0.000000000
  dxy         0    0.000000000  0.000000000   0.000000000   0.000000000
  dxz         0    0.060227583  0.060227583   0.120455166   0.000000000
  dyz         0    0.060227583  0.060227583   0.120455167   0.000000000
   sum over m      0.100391513  0.100391513   0.200783026   0.000000000
   sum over m+mul  0.100391513  0.100391513   0.200783026   0.000000000

   11    C          Up spin      Down spin     Sum           Diff
            multiple
  s           0    0.765858480  0.765858480   1.531716961   0.000000000
   sum over m      0.765858480  0.765858480   1.531716961   0.000000000
  s           1   -0.011269300 -0.011269300  -0.022538600   0.000000000
   sum over m     -0.011269300 -0.011269300  -0.022538600   0.000000000
  s           2    0.002799854  0.002799854   0.005599708   0.000000000
   sum over m      0.002799854  0.002799854   0.005599708   0.000000000
   sum over m+mul  0.757389034  0.757389034   1.514778068   0.000000000
  px          0    0.452868684  0.452868684   0.905737369   0.000000000
  py          0    0.452868684  0.452868684   0.905737369   0.000000000
  pz          0    0.314363524  0.314363524   0.628727048   0.000000000
   sum over m      1.220100893  1.220100893   2.440201786   0.000000000
  px          1   -0.007438916 -0.007438916  -0.014877832   0.000000000
  py          1   -0.007438916 -0.007438916  -0.014877832   0.000000000
  pz          1   -0.082604593 -0.082604593  -0.165209186   0.000000000
   sum over m     -0.097482425 -0.097482425  -0.194964850   0.000000000
  px          2   -0.002918467 -0.002918467  -0.005836935   0.000000000
  py          2   -0.002918467 -0.002918467  -0.005836935   0.000000000
  pz          2    0.003703066  0.003703066   0.007406132   0.000000000
   sum over m     -0.002133869 -0.002133869  -0.004267738   0.000000000
   sum over m+mul  1.120484599  1.120484599   2.240969198   0.000000000
  d3z^2-r^2   0   -0.018798860 -0.018798860  -0.037597721   0.000000000
  dx^2-y^2    0    0.000000000  0.000000000   0.000000000   0.000000000
  dxy         0    0.000000000  0.000000000   0.000000000   0.000000000
  dxz         0    0.056091796  0.056091796   0.112183592   0.000000000
  dyz         0    0.056091796  0.056091796   0.112183592   0.000000000
   sum over m      0.093384732  0.093384732   0.186769463   0.000000000
   sum over m+mul  0.093384732  0.093384732   0.186769463   0.000000000

   12    C          Up spin      Down spin     Sum           Diff
            multiple
  s           0    0.767444627  0.767444627   1.534889255   0.000000000
   sum over m      0.767444627  0.767444627   1.534889255   0.000000000
  s           1   -0.013894850 -0.013894850  -0.027789699   0.000000000
   sum over m     -0.013894850 -0.013894850  -0.027789699   0.000000000
  s           2    0.002492221  0.002492221   0.004984441   0.000000000
   sum over m      0.002492221  0.002492221   0.004984441   0.000000000
   sum over m+mul  0.756041998  0.756041998   1.512083997   0.000000000
  px          0    0.436893427  0.436893427   0.873786855   0.000000000
  py          0    0.436893428  0.436893428   0.873786855   0.000000000
  pz          0    0.301902590  0.301902590   0.603805181   0.000000000
   sum over m      1.175689445  1.175689445   2.351378890   0.000000000
  px          1   -0.007911090 -0.007911090  -0.015822181   0.000000000
  py          1   -0.007911090 -0.007911090  -0.015822181   0.000000000
  pz          1   -0.091238398 -0.091238398  -0.182476795   0.000000000
   sum over m     -0.107060578 -0.107060578  -0.214121157   0.000000000
  px          2   -0.002355543 -0.002355543  -0.004711086   0.000000000
  py          2   -0.002355543 -0.002355543  -0.004711086   0.000000000
  pz          2   -0.004420976 -0.004420976  -0.008841952   0.000000000
   sum over m     -0.009132062 -0.009132062  -0.018264124   0.000000000
   sum over m+mul  1.059496805  1.059496805   2.118993610   0.000000000
  d3z^2-r^2   0   -0.019193624 -0.019193624  -0.038387249   0.000000000
  dx^2-y^2    0    0.000000000  0.000000000   0.000000000   0.000000000
  dxy         0    0.000000000  0.000000000   0.000000000   0.000000000
  dxz         0    0.065896902  0.065896902   0.131793803   0.000000000
  dyz         0    0.065896902  0.065896902   0.131793803   0.000000000
   sum over m      0.112600179  0.112600179   0.225200358   0.000000000
   sum over m+mul  0.112600179  0.112600179   0.225200358   0.000000000

   13    C          Up spin      Down spin     Sum           Diff
            multiple
  s           0    0.752078417  0.752078417   1.504156833   0.000000000
   sum over m      0.752078417  0.752078417   1.504156833   0.000000000
  s           1   -0.002774130 -0.002774130  -0.005548260   0.000000000
   sum over m     -0.002774130 -0.002774130  -0.005548260   0.000000000
  s           2    0.001725922  0.001725922   0.003451844   0.000000000
   sum over m      0.001725922  0.001725922   0.003451844   0.000000000
   sum over m+mul  0.751030208  0.751030208   1.502060417   0.000000000
  px          0    0.428773323  0.428773323   0.857546646   0.000000000
  py          0    0.428773323  0.428773323   0.857546646   0.000000000
  pz          0    0.319169791  0.319169791   0.638339583   0.000000000
   sum over m      1.176716437  1.176716437   2.353432875   0.000000000
  px          1   -0.013547568 -0.013547568  -0.027095136   0.000000000
  py          1   -0.013547568 -0.013547568  -0.027095136   0.000000000
  pz          1    0.009750197  0.009750197   0.019500394   0.000000000
   sum over m     -0.017344938 -0.017344938  -0.034689877   0.000000000
  px          2   -0.003094143 -0.003094143  -0.006188286   0.000000000
  py          2   -0.003094143 -0.003094143  -0.006188286   0.000000000
  pz          2   -0.012484163 -0.012484163  -0.024968326   0.000000000
   sum over m     -0.018672449 -0.018672449  -0.037344898   0.000000000
   sum over m+mul  1.140699050  1.140699050   2.281398100   0.000000000
  d3z^2-r^2   0   -0.007205432 -0.007205432  -0.014410864   0.000000000
  dx^2-y^2    0    0.000000000  0.000000000   0.000000000   0.000000000
  dxy         0    0.000000000  0.000000000   0.000000000   0.000000000
  dxz         0    0.036543997  0.036543997   0.073087994   0.000000000
  dyz         0    0.036543997  0.036543997   0.073087995   0.000000000
   sum over m      0.065882562  0.065882562   0.131765125   0.000000000
   sum over m+mul  0.065882562  0.065882562   0.131765125   0.000000000

   14    C          Up spin      Down spin     Sum           Diff
            multiple
  s           0    0.859586033  0.859586033   1.719172066   0.000000000
   sum over m      0.859586033  0.859586033   1.719172066   0.000000000
  s           1   -0.003135280 -0.003135280  -0.006270561   0.000000000
   sum over m     -0.003135280 -0.003135280  -0.006270561   0.000000000
  s           2    0.000723166  0.000723166   0.001446332   0.000000000
   sum over m      0.000723166  0.000723166   0.001446332   0.000000000
   sum over m+mul  0.857173919  0.857173919   1.714347837   0.000000000
  px          0    0.383932818  0.383932818   0.767865635   0.000000000
  py          0    0.383932818  0.383932818   0.767865636   0.000000000
  pz          0    0.564559479  0.564559479   1.129118958   0.000000000
   sum over m      1.332425114  1.332425114   2.664850229   0.000000000
  px          1   -0.000081505 -0.000081505  -0.000163011   0.000000000
  py          1   -0.000081505 -0.000081505  -0.000163011   0.000000000
  pz          1   -0.014087203 -0.014087203  -0.028174406   0.000000000
   sum over m     -0.014250214 -0.014250214  -0.028500427   0.000000000
  px          2   -0.000168022 -0.000168022  -0.000336045   0.000000000
  py          2   -0.000168022 -0.000168022  -0.000336045   0.000000000
  pz          2    0.001299937  0.001299937   0.002599874   0.000000000
   sum over m      0.000963892  0.000963892   0.001927784   0.000000000
   sum over m+mul  1.319138793  1.319138793   2.638277585   0.000000000
  d3z^2-r^2   0    0.005411165  0.005411165   0.010822330   0.000000000
  dx^2-y^2    0    0.000000000  0.000000000   0.000000000   0.000000000
  dxy         0    0.000000000  0.000000000   0.000000000   0.000000000
  dxz         0    0.023705911  0.023705911   0.047411823   0.000000000
  dyz         0    0.023705911  0.023705911   0.047411822   0.000000000
   sum over m      0.052822987  0.052822987   0.105645975   0.000000000
   sum over m+mul  0.052822987  0.052822987   0.105645975   0.000000000

   15    C          Up spin      Down spin     Sum           Diff
            multiple
  s           0    0.969089043  0.969089043   1.938178087   0.000000000
   sum over m      0.969089043  0.969089043   1.938178087   0.000000000
  s           1    0.020662523  0.020662523   0.041325046   0.000000000
   sum over m      0.020662523  0.020662523   0.041325046   0.000000000
  s           2   -0.000274682 -0.000274682  -0.000549364   0.000000000
   sum over m     -0.000274682 -0.000274682  -0.000549364   0.000000000
   sum over m+mul  0.989476884  0.989476884   1.978953769   0.000000000
  px          0    0.308845672  0.308845672   0.617691344   0.000000000
  py          0    0.308845671  0.308845671   0.617691341   0.000000000
  pz          0    0.322574641  0.322574641   0.645149281   0.000000000
   sum over m      0.940265983  0.940265983   1.880531966   0.000000000
  px          1    0.000188071  0.000188071   0.000376141   0.000000000
  py          1    0.000188071  0.000188071   0.000376141   0.000000000
  pz          1   -0.004435048 -0.004435048  -0.008870096   0.000000000
   sum over m     -0.004058906 -0.004058906  -0.008117813   0.000000000
  px          2    0.000089554  0.000089554   0.000179109   0.000000000
  py          2    0.000089554  0.000089554   0.000179109   0.000000000
  pz          2    0.000002552  0.000002552   0.000005103   0.000000000
   sum over m      0.000181660  0.000181660   0.000363321   0.000000000
   sum over m+mul  0.936388737  0.936388737   1.872777474   0.000000000
  d3z^2-r^2   0    0.012623738  0.012623738   0.025247476   0.000000000
  dx^2-y^2    0    0.000000000  0.000000000   0.000000000   0.000000000
  dxy         0   -0.000000000 -0.000000000  -0.000000000   0.000000000
  dxz         0    0.006249790  0.006249790   0.012499579   0.000000000
  dyz         0    0.006249790  0.006249790   0.012499579   0.000000000
   sum over m      0.025123317  0.025123317   0.050246635   0.000000000
   sum over m+mul  0.025123317  0.025123317   0.050246635   0.000000000

   16    C          Up spin      Down spin     Sum           Diff
            multiple
  s           0    0.859586034  0.859586034   1.719172067   0.000000000
   sum over m      0.859586034  0.859586034   1.719172067   0.000000000
  s           1   -0.003135280 -0.003135280  -0.006270560   0.000000000
   sum over m     -0.003135280 -0.003135280  -0.006270560   0.000000000
  s           2    0.000723166  0.000723166   0.001446332   0.000000000
   sum over m      0.000723166  0.000723166   0.001446332   0.000000000
   sum over m+mul  0.857173919  0.857173919   1.714347839   0.000000000
  px          0    0.383932817  0.383932817   0.767865634   0.000000000
  py          0    0.383932818  0.383932818   0.767865635   0.000000000
  pz          0    0.564559480  0.564559480   1.129118959   0.000000000
   sum over m      1.332425114  1.332425114   2.664850228   0.000000000
  px          1   -0.000081505 -0.000081505  -0.000163011   0.000000000
  py          1   -0.000081505 -0.000081505  -0.000163011   0.000000000
  pz          1   -0.014087203 -0.014087203  -0.028174405   0.000000000
   sum over m     -0.014250213 -0.014250213  -0.028500427   0.000000000
  px          2   -0.000168022 -0.000168022  -0.000336045   0.000000000
  py          2   -0.000168022 -0.000168022  -0.000336045   0.000000000
  pz          2    0.001299937  0.001299937   0.002599874   0.000000000
   sum over m      0.000963892  0.000963892   0.001927784   0.000000000
   sum over m+mul  1.319138793  1.319138793   2.638277585   0.000000000
  d3z^2-r^2   0    0.005411164  0.005411164   0.010822329   0.000000000
  dx^2-y^2    0    0.000000000  0.000000000   0.000000000   0.000000000
  dxy         0    0.000000000  0.000000000   0.000000000   0.000000000
  dxz         0    0.023705911  0.023705911   0.047411823   0.000000000
  dyz         0    0.023705911  0.023705911   0.047411822   0.000000000
   sum over m      0.052822987  0.052822987   0.105645974   0.000000000
   sum over m+mul  0.052822987  0.052822987   0.105645974   0.000000000

   17    C          Up spin      Down spin     Sum           Diff
            multiple
  s           0    0.752078416  0.752078416   1.504156832   0.000000000
   sum over m      0.752078416  0.752078416   1.504156832   0.000000000
  s           1   -0.002774130 -0.002774130  -0.005548260   0.000000000
   sum over m     -0.002774130 -0.002774130  -0.005548260   0.000000000
  s           2    0.001725922  0.001725922   0.003451844   0.000000000
   sum over m      0.001725922  0.001725922   0.003451844   0.000000000
   sum over m+mul  0.751030208  0.751030208   1.502060416   0.000000000
  px          0    0.428773323  0.428773323   0.857546646   0.000000000
  py          0    0.428773323  0.428773323   0.857546646   0.000000000
  pz          0    0.319169790  0.319169790   0.638339581   0.000000000
   sum over m      1.176716437  1.176716437   2.353432873   0.000000000
  px          1   -0.013547568 -0.013547568  -0.027095136   0.000000000
  py          1   -0.013547568 -0.013547568  -0.027095136   0.000000000
  pz          1    0.009750197  0.009750197   0.019500394   0.000000000
   sum over m     -0.017344939 -0.017344939  -0.034689877   0.000000000
  px          2   -0.003094143 -0.003094143  -0.006188286   0.000000000
  py          2   -0.003094143 -0.003094143  -0.006188286   0.000000000
  pz          2   -0.012484163 -0.012484163  -0.024968326   0.000000000
   sum over m     -0.018672449 -0.018672449  -0.037344898   0.000000000
   sum over m+mul  1.140699049  1.140699049   2.281398098   0.000000000
  d3z^2-r^2   0   -0.007205432 -0.007205432  -0.014410864   0.000000000
  dx^2-y^2    0    0.000000000  0.000000000   0.000000000   0.000000000
  dxy         0    0.000000000  0.000000000   0.000000000   0.000000000
  dxz         0    0.036543997  0.036543997   0.073087994   0.000000000
  dyz         0    0.036543997  0.036543997   0.073087994   0.000000000
   sum over m      0.065882562  0.065882562   0.131765125   0.000000000
   sum over m+mul  0.065882562  0.065882562   0.131765125   0.000000000

   18    C          Up spin      Down spin     Sum           Diff
            multiple
  s           0    0.767444628  0.767444628   1.534889256   0.000000000
   sum over m      0.767444628  0.767444628   1.534889256   0.000000000
  s           1   -0.013894850 -0.013894850  -0.027789699   0.000000000
   sum over m     -0.013894850 -0.013894850  -0.027789699   0.000000000
  s           2    0.002492221  0.002492221   0.004984442   0.000000000
   sum over m      0.002492221  0.002492221   0.004984442   0.000000000
   sum over m+mul  0.756041999  0.756041999   1.512083998   0.000000000
  px          0    0.436893427  0.436893427   0.873786854   0.000000000
  py          0    0.436893427  0.436893427   0.873786854   0.000000000
  pz          0    0.301902591  0.301902591   0.603805182   0.000000000
   sum over m      1.175689445  1.175689445   2.351378890   0.000000000
  px          1   -0.007911090 -0.007911090  -0.015822181   0.000000000
  py          1   -0.007911090 -0.007911090  -0.015822181   0.000000000
  pz          1   -0.091238398 -0.091238398  -0.182476795   0.000000000
   sum over m     -0.107060578 -0.107060578  -0.214121157   0.000000000
  px          2   -0.002355543 -0.002355543  -0.004711086   0.000000000
  py          2   -0.002355543 -0.002355543  -0.004711086   0.000000000
  pz          2   -0.004420976 -0.004420976  -0.008841952   0.000000000
   sum over m     -0.009132062 -0.009132062  -0.018264123   0.000000000
   sum over m+mul  1.059496805  1.059496805   2.118993610   0.000000000
  d3z^2-r^2   0   -0.019193625 -0.019193625  -0.038387250   0.000000000
  dx^2-y^2    0    0.000000000  0.000000000   0.000000000   0.000000000
  dxy         0    0.000000000  0.000000000   0.000000000   0.000000000
  dxz         0    0.065896902  0.065896902   0.131793803   0.000000000
  dyz         0    0.065896902  0.065896902   0.131793803   0.000000000
   sum over m      0.112600179  0.112600179   0.225200357   0.000000000
   sum over m+mul  0.112600179  0.112600179   0.225200357   0.000000000

   19    C          Up spin      Down spin     Sum           Diff
            multiple
  s           0    0.765858480  0.765858480   1.531716960   0.000000000
   sum over m      0.765858480  0.765858480   1.531716960   0.000000000
  s           1   -0.011269300 -0.011269300  -0.022538600   0.000000000
   sum over m     -0.011269300 -0.011269300  -0.022538600   0.000000000
  s           2    0.002799854  0.002799854   0.005599708   0.000000000
   sum over m      0.002799854  0.002799854   0.005599708   0.000000000
   sum over m+mul  0.757389034  0.757389034   1.514778068   0.000000000
  px          0    0.452868685  0.452868685   0.905737369   0.000000000
  py          0    0.452868684  0.452868684   0.905737369   0.000000000
  pz          0    0.314363524  0.314363524   0.628727049   0.000000000
   sum over m      1.220100893  1.220100893   2.440201786   0.000000000
  px          1   -0.007438916 -0.007438916  -0.014877832   0.000000000
  py          1   -0.007438916 -0.007438916  -0.014877832   0.000000000
  pz          1   -0.082604593 -0.082604593  -0.165209185   0.000000000
   sum over m     -0.097482425 -0.097482425  -0.194964850   0.000000000
  px          2   -0.002918467 -0.002918467  -0.005836935   0.000000000
  py          2   -0.002918467 -0.002918467  -0.005836935   0.000000000
  pz          2    0.003703066  0.003703066   0.007406132   0.000000000
   sum over m     -0.002133869 -0.002133869  -0.004267738   0.000000000
   sum over m+mul  1.120484599  1.120484599   2.240969199   0.000000000
  d3z^2-r^2   0   -0.018798860 -0.018798860  -0.037597720   0.000000000
  dx^2-y^2    0    0.000000000  0.000000000   0.000000000   0.000000000
  dxy         0    0.000000000  0.000000000   0.000000000   0.000000000
  dxz         0    0.056091796  0.056091796   0.112183592   0.000000000
  dyz         0    0.056091796  0.056091796   0.112183592   0.000000000
   sum over m      0.093384732  0.093384732   0.186769464   0.000000000
   sum over m+mul  0.093384732  0.093384732   0.186769464   0.000000000

   20    C          Up spin      Down spin     Sum           Diff
            multiple
  s           0    0.770084164  0.770084164   1.540168328   0.000000000
   sum over m      0.770084164  0.770084164   1.540168328   0.000000000
  s           1   -0.011927233 -0.011927233  -0.023854465   0.000000000
   sum over m     -0.011927233 -0.011927233  -0.023854465   0.000000000
  s           2    0.002568130  0.002568130   0.005136260   0.000000000
   sum over m      0.002568130  0.002568130   0.005136260   0.000000000
   sum over m+mul  0.760725061  0.760725061   1.521450122   0.000000000
  px          0    0.446348168  0.446348168   0.892696336   0.000000000
  py          0    0.446348168  0.446348168   0.892696336   0.000000000
  pz          0    0.320321169  0.320321169   0.640642338   0.000000000
   sum over m      1.213017505  1.213017505   2.426035011   0.000000000
  px          1   -0.007607671 -0.007607671  -0.015215342   0.000000000
  py          1   -0.007607671 -0.007607671  -0.015215342   0.000000000
  pz          1   -0.080183947 -0.080183947  -0.160367895   0.000000000
   sum over m     -0.095399289 -0.095399289  -0.190798578   0.000000000
  px          2   -0.002690085 -0.002690085  -0.005380170   0.000000000
  py          2   -0.002690085 -0.002690085  -0.005380170   0.000000000
  pz          2    0.001329231  0.001329231   0.002658462   0.000000000
   sum over m     -0.004050939 -0.004050939  -0.008101878   0.000000000
   sum over m+mul  1.113567277  1.113567277   2.227134554   0.000000000
  d3z^2-r^2   0   -0.020063653 -0.020063653  -0.040127306   0.000000000
  dx^2-y^2    0    0.000000000  0.000000000   0.000000000   0.000000000
  dxy         0    0.000000000  0.000000000   0.000000000   0.000000000
  dxz         0    0.060227583  0.060227583   0.120455166   0.000000000
  dyz         0    0.060227584  0.060227584   0.120455167   0.000000000
   sum over m      0.100391514  0.100391514   0.200783027   0.000000000
   sum over m+mul  0.100391514  0.100391514   0.200783027   0.000000000

   21    C          Up spin      Down spin     Sum           Diff
            multiple
  s           0    0.770865047  0.770865047   1.541730094   0.000000000
   sum over m      0.770865047  0.770865047   1.541730094   0.000000000
  s           1   -0.012282589 -0.012282589  -0.024565178   0.000000000
   sum over m     -0.012282589 -0.012282589  -0.024565178   0.000000000
  s           2    0.002639428  0.002639428   0.005278857   0.000000000
   sum over m      0.002639428  0.002639428   0.005278857   0.000000000
   sum over m+mul  0.761221886  0.761221886   1.522443773   0.000000000
  px          0    0.449387690  0.449387690   0.898775381   0.000000000
  py          0    0.449387690  0.449387690   0.898775381   0.000000000
  pz          0    0.316763141  0.316763141   0.633526282   0.000000000
   sum over m      1.215538522  1.215538522   2.431077044   0.000000000
  px          1   -0.007478331 -0.007478331  -0.014956661   0.000000000
  py          1   -0.007478331 -0.007478331  -0.014956661   0.000000000
  pz          1   -0.080076482 -0.080076482  -0.160152964   0.000000000
   sum over m     -0.095033143 -0.095033143  -0.190066287   0.000000000
  px          2   -0.002800112 -0.002800112  -0.005600224   0.000000000
  py          2   -0.002800112 -0.002800112  -0.005600224   0.000000000
  pz          2    0.001265430  0.001265430   0.002530861   0.000000000
   sum over m     -0.004334794 -0.004334794  -0.008669588   0.000000000
   sum over m+mul  1.116170584  1.116170584   2.232341169   0.000000000
  d3z^2-r^2   0   -0.019762595 -0.019762595  -0.039525190   0.000000000
  dx^2-y^2    0    0.000000000  0.000000000   0.000000000   0.000000000
  dxy         0    0.000000000  0.000000000   0.000000000   0.000000000
  dxz         0    0.059306982  0.059306982   0.118613964   0.000000000
  dyz         0    0.059306982  0.059306982   0.118613964   0.000000000
   sum over m      0.098851369  0.098851369   0.197702737   0.000000000
   sum over m+mul  0.098851369  0.098851369   0.197702737   0.000000000

   22    C          Up spin      Down spin     Sum           Diff
            multiple
  s           0    0.771403715  0.771403715   1.542807429   0.000000000
   sum over m      0.771403715  0.771403715   1.542807429   0.000000000
  s           1   -0.011903945 -0.011903945  -0.023807890   0.000000000
   sum over m     -0.011903945 -0.011903945  -0.023807890   0.000000000
  s           2    0.002626454  0.002626454   0.005252909   0.000000000
   sum over m      0.002626454  0.002626454   0.005252909   0.000000000
   sum over m+mul  0.762126224  0.762126224   1.524252448   0.000000000
  px          0    0.449287561  0.449287561   0.898575121   0.000000000
  py          0    0.449287561  0.449287561   0.898575122   0.000000000
  pz          0    0.319308587  0.319308587   0.638617174   0.000000000
   sum over m      1.217883708  1.217883708   2.435767416   0.000000000
  px          1   -0.007191410 -0.007191410  -0.014382820   0.000000000
  py          1   -0.007191410 -0.007191410  -0.014382820   0.000000000
  pz          1   -0.079960202 -0.079960202  -0.159920403   0.000000000
   sum over m     -0.094343022 -0.094343022  -0.188686043   0.000000000
  px          2   -0.002830384 -0.002830384  -0.005660769   0.000000000
  py          2   -0.002830384 -0.002830384  -0.005660769   0.000000000
  pz          2    0.001275172  0.001275172   0.002550344   0.000000000
   sum over m     -0.004385597 -0.004385597  -0.008771194   0.000000000
   sum over m+mul  1.119155090  1.119155090   2.238310179   0.000000000
  d3z^2-r^2   0   -0.019592103 -0.019592103  -0.039184207   0.000000000
  dx^2-y^2    0    0.000000000  0.000000000   0.000000000   0.000000000
  dxy         0    0.000000000  0.000000000   0.000000000   0.000000000
  dxz         0    0.058654925  0.058654925   0.117309849   0.000000000
  dyz         0    0.058654925  0.058654925   0.117309850   0.000000000
   sum over m      0.097717746  0.097717746   0.195435493   0.000000000
   sum over m+mul  0.097717746  0.097717746   0.195435493   0.000000000

   23    C          Up spin      Down spin     Sum           Diff
            multiple
  s           0    0.772350197  0.772350197   1.544700395   0.000000000
   sum over m      0.772350197  0.772350197   1.544700395   0.000000000
  s           1   -0.011866402 -0.011866402  -0.023732804   0.000000000
   sum over m     -0.011866402 -0.011866402  -0.023732804   0.000000000
  s           2    0.002571900  0.002571900   0.005143800   0.000000000
   sum over m      0.002571900  0.002571900   0.005143800   0.000000000
   sum over m+mul  0.763055695  0.763055695   1.526111390   0.000000000
  px          0    0.446392385  0.446392385   0.892784770   0.000000000
  py          0    0.446392385  0.446392385   0.892784770   0.000000000
  pz          0    0.320612936  0.320612936   0.641225872   0.000000000
   sum over m      1.213397706  1.213397706   2.426795412   0.000000000
  px          1   -0.007829228 -0.007829228  -0.015658456   0.000000000
  py          1   -0.007829228 -0.007829228  -0.015658456   0.000000000
  pz          1   -0.079557831 -0.079557831  -0.159115662   0.000000000
   sum over m     -0.095216287 -0.095216287  -0.190432574   0.000000000
  px          2   -0.002703900 -0.002703900  -0.005407799   0.000000000
  py          2   -0.002703900 -0.002703900  -0.005407799   0.000000000
  pz          2    0.001320389  0.001320389   0.002640778   0.000000000
   sum over m     -0.004087410 -0.004087410  -0.008174820   0.000000000
   sum over m+mul  1.114094009  1.114094009   2.228188018   0.000000000
  d3z^2-r^2   0   -0.019646431 -0.019646431  -0.039292861   0.000000000
  dx^2-y^2    0    0.000000000  0.000000000   0.000000000   0.000000000
  dxy         0    0.000000000  0.000000000   0.000000000   0.000000000
  dxz         0    0.061283858  0.061283858   0.122567715   0.000000000
  dyz         0    0.061283858  0.061283858   0.122567716   0.000000000
   sum over m      0.102921285  0.102921285   0.205842569   0.000000000
   sum over m+mul  0.102921285  0.102921285   0.205842569   0.000000000

   24    C          Up spin      Down spin     Sum           Diff
            multiple
  s           0    0.769222090  0.769222090   1.538444180   0.000000000
   sum over m      0.769222090  0.769222090   1.538444180   0.000000000
  s           1   -0.012279724 -0.012279724  -0.024559448   0.000000000
   sum over m     -0.012279724 -0.012279724  -0.024559448   0.000000000
  s           2    0.002691091  0.002691091   0.005382182   0.000000000
   sum over m      0.002691091  0.002691091   0.005382182   0.000000000
   sum over m+mul  0.759633457  0.759633457   1.519266914   0.000000000
  px          0    0.451475929  0.451475929   0.902951859   0.000000000
  py          0    0.451475930  0.451475930   0.902951859   0.000000000
  pz          0    0.316044122  0.316044122   0.632088245   0.000000000
   sum over m      1.218995981  1.218995981   2.437991963   0.000000000
  px          1   -0.006827501 -0.006827501  -0.013655002   0.000000000
  py          1   -0.006827501 -0.006827501  -0.013655002   0.000000000
  pz          1   -0.080507338 -0.080507338  -0.161014676   0.000000000
   sum over m     -0.094162340 -0.094162340  -0.188324680   0.000000000
  px          2   -0.002937462 -0.002937462  -0.005874924   0.000000000
  py          2   -0.002937462 -0.002937462  -0.005874924   0.000000000
  pz          2    0.001417062  0.001417062   0.002834123   0.000000000
   sum over m     -0.004457862 -0.004457862  -0.008915725   0.000000000
   sum over m+mul  1.120375779  1.120375779   2.240751558   0.000000000
  d3z^2-r^2   0   -0.020016755 -0.020016755  -0.040033510   0.000000000
  dx^2-y^2    0    0.000000000  0.000000000   0.000000000   0.000000000
  dxy         0    0.000000000  0.000000000   0.000000000   0.000000000
  dxz         0    0.056385479  0.056385479   0.112770958   0.000000000
  dyz         0    0.056385479  0.056385479   0.112770958   0.000000000
   sum over m      0.092754203  0.092754203   0.185508406   0.000000000
   sum over m+mul  0.092754203  0.092754203   0.185508406   0.000000000

   25    C          Up spin      Down spin     Sum           Diff
            multiple
  s           0    0.771138244  0.771138244   1.542276488   0.000000000
   sum over m      0.771138244  0.771138244   1.542276488   0.000000000
  s           1   -0.011546160 -0.011546160  -0.023092320   0.000000000
   sum over m     -0.011546160 -0.011546160  -0.023092320   0.000000000
  s           2    0.002508386  0.002508386   0.005016772   0.000000000
   sum over m      0.002508386  0.002508386   0.005016772   0.000000000
   sum over m+mul  0.762100470  0.762100470   1.524200940   0.000000000
  px          0    0.442057660  0.442057660   0.884115319   0.000000000
  py          0    0.442057660  0.442057660   0.884115320   0.000000000
  pz          0    0.319032076  0.319032076   0.638064152   0.000000000
   sum over m      1.203147396  1.203147396   2.406294791   0.000000000
  px          1   -0.008364113 -0.008364113  -0.016728226   0.000000000
  py          1   -0.008364113 -0.008364113  -0.016728226   0.000000000
  pz          1   -0.080819954 -0.080819954  -0.161639907   0.000000000
   sum over m     -0.097548179 -0.097548179  -0.195096359   0.000000000
  px          2   -0.002556502 -0.002556502  -0.005113004   0.000000000
  py          2   -0.002556502 -0.002556502  -0.005113004   0.000000000
  pz          2    0.001180427  0.001180427   0.002360854   0.000000000
   sum over m     -0.003932577 -0.003932577  -0.007865153   0.000000000
   sum over m+mul  1.101666640  1.101666640   2.203333279   0.000000000
  d3z^2-r^2   0   -0.019153316 -0.019153316  -0.038306632   0.000000000
  dx^2-y^2    0    0.000000000  0.000000000   0.000000000   0.000000000
  dxy         0    0.000000000  0.000000000   0.000000000   0.000000000
  dxz         0    0.063203236  0.063203236   0.126406471   0.000000000
  dyz         0    0.063203236  0.063203236   0.126406472   0.000000000
   sum over m      0.107253156  0.107253156   0.214506311   0.000000000
   sum over m+mul  0.107253156  0.107253156   0.214506311   0.000000000

   26    C          Up spin      Down spin     Sum           Diff
            multiple
  s           0    0.761513348  0.761513348   1.523026697   0.000000000
   sum over m      0.761513348  0.761513348   1.523026697   0.000000000
  s           1   -0.011464379 -0.011464379  -0.022928758   0.000000000
   sum over m     -0.011464379 -0.011464379  -0.022928758   0.000000000
  s           2    0.002884370  0.002884370   0.005768740   0.000000000
   sum over m      0.002884370  0.002884370   0.005768740   0.000000000
   sum over m+mul  0.752933340  0.752933340   1.505866679   0.000000000
  px          0    0.453732073  0.453732073   0.907464146   0.000000000
  py          0    0.453732073  0.453732073   0.907464146   0.000000000
  pz          0    0.311304583  0.311304583   0.622609165   0.000000000
   sum over m      1.218768728  1.218768728   2.437537457   0.000000000
  px          1   -0.006681992 -0.006681992  -0.013363984   0.000000000
  py          1   -0.006681992 -0.006681992  -0.013363984   0.000000000
  pz          1   -0.081768928 -0.081768928  -0.163537856   0.000000000
   sum over m     -0.095132912 -0.095132912  -0.190265824   0.000000000
  px          2   -0.003104481 -0.003104481  -0.006208961   0.000000000
  py          2   -0.003104481 -0.003104481  -0.006208962   0.000000000
  pz          2    0.004171069  0.004171069   0.008342139   0.000000000
   sum over m     -0.002037892 -0.002037892  -0.004075784   0.000000000
   sum over m+mul  1.121597924  1.121597924   2.243195849   0.000000000
  d3z^2-r^2   0   -0.018675127 -0.018675127  -0.037350254   0.000000000
  dx^2-y^2    0    0.000000000  0.000000000   0.000000000   0.000000000
  dxy         0    0.000000000  0.000000000   0.000000000   0.000000000
  dxz         0    0.052770581  0.052770581   0.105541162   0.000000000
  dyz         0    0.052770581  0.052770581   0.105541162   0.000000000
   sum over m      0.086866035  0.086866035   0.173732071   0.000000000
   sum over m+mul  0.086866035  0.086866035   0.173732071   0.000000000

   27    C          Up spin      Down spin     Sum           Diff
            multiple
  s           0    0.770094013  0.770094013   1.540188025   0.000000000
   sum over m      0.770094013  0.770094013   1.540188025   0.000000000
  s           1   -0.011237186 -0.011237186  -0.022474372   0.000000000
   sum over m     -0.011237186 -0.011237186  -0.022474372   0.000000000
  s           2    0.002281853  0.002281853   0.004563707   0.000000000
   sum over m      0.002281853  0.002281853   0.004563707   0.000000000
   sum over m+mul  0.761138680  0.761138680   1.522277359   0.000000000
  px          0    0.428454344  0.428454344   0.856908688   0.000000000
  py          0    0.428454344  0.428454344   0.856908688   0.000000000
  pz          0    0.305316536  0.305316536   0.610633072   0.000000000
   sum over m      1.162225224  1.162225224   2.324450448   0.000000000
  px          1   -0.009989507 -0.009989507  -0.019979013   0.000000000
  py          1   -0.009989507 -0.009989507  -0.019979013   0.000000000
  pz          1   -0.091992865 -0.091992865  -0.183985731   0.000000000
   sum over m     -0.111971879 -0.111971879  -0.223943757   0.000000000
  px          2   -0.002025712 -0.002025712  -0.004051424   0.000000000
  py          2   -0.002025712 -0.002025712  -0.004051424   0.000000000
  pz          2   -0.005831259 -0.005831259  -0.011662517   0.000000000
   sum over m     -0.009882683 -0.009882683  -0.019765366   0.000000000
   sum over m+mul  1.040370662  1.040370662   2.080741324   0.000000000
  d3z^2-r^2   0   -0.016443106 -0.016443106  -0.032886212   0.000000000
  dx^2-y^2    0    0.000000000  0.000000000   0.000000000   0.000000000
  dxy         0    0.000000000  0.000000000   0.000000000   0.000000000
  dxz         0    0.068449189  0.068449189   0.136898377   0.000000000
  dyz         0    0.068449189  0.068449189   0.136898377   0.000000000
   sum over m      0.120455271  0.120455271   0.240910542   0.000000000
   sum over m+mul  0.120455271  0.120455271   0.240910542   0.000000000

   28    C          Up spin      Down spin     Sum           Diff
            multiple
  s           0    0.753289030  0.753289030   1.506578061   0.000000000
   sum over m      0.753289030  0.753289030   1.506578061   0.000000000
  s           1    0.013349243  0.013349243   0.026698487   0.000000000
   sum over m      0.013349243  0.013349243   0.026698487   0.000000000
  s           2    0.001841383  0.001841383   0.003682766   0.000000000
   sum over m      0.001841383  0.001841383   0.003682766   0.000000000
   sum over m+mul  0.768479657  0.768479657   1.536959313   0.000000000
  px          0    0.444724873  0.444724873   0.889449746   0.000000000
  py          0    0.444724873  0.444724873   0.889449746   0.000000000
  pz          0    0.309290881  0.309290881   0.618581763   0.000000000
   sum over m      1.198740627  1.198740627   2.397481254   0.000000000
  px          1   -0.011343311 -0.011343311  -0.022686623   0.000000000
  py          1   -0.011343311 -0.011343311  -0.022686623   0.000000000
  pz          1    0.041257693  0.041257693   0.082515385   0.000000000
   sum over m      0.018571070  0.018571070   0.037142140   0.000000000
  px          2   -0.002735402 -0.002735402  -0.005470804   0.000000000
  py          2   -0.002735402 -0.002735402  -0.005470804   0.000000000
  pz          2   -0.014316229 -0.014316229  -0.028632459   0.000000000
   sum over m     -0.019787033 -0.019787033  -0.039574066   0.000000000
   sum over m+mul  1.197524664  1.197524664   2.395049328   0.000000000
  d3z^2-r^2   0   -0.001016592 -0.001016592  -0.002033183   0.000000000
  dx^2-y^2    0    0.000000000  0.000000000   0.000000000   0.000000000
  dxy         0    0.000000000  0.000000000   0.000000000   0.000000000
  dxz         0    0.028645242  0.028645242   0.057290485   0.000000000
  dyz         0    0.028645242  0.028645242   0.057290485   0.000000000
   sum over m      0.056273893  0.056273893   0.112547786   0.000000000
   sum over m+mul  0.056273893  0.056273893   0.112547786   0.000000000

   29    C          Up spin      Down spin     Sum           Diff
            multiple
  s           0    0.909130332  0.909130332   1.818260663   0.000000000
   sum over m      0.909130332  0.909130332   1.818260663   0.000000000
  s           1   -0.006939542 -0.006939542  -0.013879085   0.000000000
   sum over m     -0.006939542 -0.006939542  -0.013879085   0.000000000
  s           2    0.001352073  0.001352073   0.002704146   0.000000000
   sum over m      0.001352073  0.001352073   0.002704146   0.000000000
   sum over m+mul  0.903542862  0.903542862   1.807085724   0.000000000
  px          0    0.304286253  0.304286253   0.608572507   0.000000000
  py          0    0.304286254  0.304286254   0.608572508   0.000000000
  pz          0    0.641009976  0.641009976   1.282019953   0.000000000
   sum over m      1.249582484  1.249582484   2.499164967   0.000000000
  px          1   -0.000025087 -0.000025087  -0.000050174   0.000000000
  py          1   -0.000025087 -0.000025087  -0.000050174   0.000000000
  pz          1   -0.011711081 -0.011711081  -0.023422162   0.000000000
   sum over m     -0.011761255 -0.011761255  -0.023522510   0.000000000
  px          2   -0.000466233 -0.000466233  -0.000932467   0.000000000
  py          2   -0.000466233 -0.000466233  -0.000932467   0.000000000
  pz          2    0.000634345  0.000634345   0.001268690   0.000000000
   sum over m     -0.000298122 -0.000298122  -0.000596243   0.000000000
   sum over m+mul  1.237523107  1.237523107   2.475046214   0.000000000
  d3z^2-r^2   0    0.001400593  0.001400593   0.002801185   0.000000000
  dx^2-y^2    0   -0.000000000 -0.000000000  -0.000000000   0.000000000
  dxy         0    0.000000000  0.000000000   0.000000000   0.000000000
  dxz         0    0.018236264  0.018236264   0.036472528   0.000000000
  dyz         0    0.018236264  0.018236264   0.036472528   0.000000000
   sum over m      0.037873120  0.037873120   0.075746241   0.000000000
   sum over m+mul  0.037873120  0.037873120   0.075746241   0.000000000

***********************************************************
***********************************************************
                    Dipole moment (Debye)                  
***********************************************************
***********************************************************

 Absolute D        0.00911643

                      Dx                Dy                Dz
 Total             -0.00000000       -0.00000000       -0.00911643
 Core               0.00000000        0.00000000    15889.07526722
 Electron          -0.00000000       -0.00000000   -15889.08438366
 Back ground       -0.00000000       -0.00000000       -0.00000000

***********************************************************
***********************************************************
       xyz-coordinates (Ang) and forces (Hartree/Bohr)  
***********************************************************
***********************************************************

<coordinates.forces
  29
    1     C     0.00000   0.00000   8.22341   0.000000002578 -0.000000000018  0.057269956524
    2     C     0.00000   0.00000   9.59398   0.000000012097 -0.000000000034  0.019621381020
    3     C     0.00000   0.00000  10.96455  -0.000000005434  0.000000000584  0.025006289959
    4     C     0.00000   0.00000  12.33512  -0.000000002028 -0.000000000435 -0.007240657082
    5     C     0.00000   0.00000  13.70569  -0.000000008047  0.000000000108  0.006317497714
    6     C     0.00000   0.00000  15.07626   0.000000003137  0.000000000120 -0.006979006370
    7     C     0.00000   0.00000  16.44683  -0.000000002279  0.000000000367  0.008742419979
    8     C     0.00000   0.00000  17.81740   0.000000004442  0.000000000023 -0.010534227215
    9     C     0.00000   0.00000  19.18797  -0.000000006913 -0.000000000006  0.011830069273
   10     C     0.00000   0.00000  20.55854   0.000000004021 -0.000000000043 -0.014932189100
   11     C     0.00000   0.00000  21.92911  -0.000000001085 -0.000000000558  0.020210767533
   12     C     0.00000   0.00000  23.29967  -0.000000001189 -0.000000000238 -0.039241902807
   13     C     0.00000   0.00000  24.67024   0.000000001811  0.000000000058  0.018667979635
   14     C     0.00000   0.00000  26.04081  -0.000000000671  0.000000000146 -0.050153868785
   15     C     0.00000   0.00000  28.51736  -0.000000000119 -0.000000000012 -0.000000000053
   16     C     0.00000   0.00000  30.99391  -0.000000001430  0.000000000143  0.050153868652
   17     C     0.00000   0.00000  32.36448   0.000000003874 -0.000000000487 -0.018667979344
   18     C     0.00000   0.00000  33.73505  -0.000000003596  0.000000000606  0.039241902546
   19     C     0.00000   0.00000  35.10562   0.000000003010 -0.000000000198 -0.020210767144
   20     C     0.00000   0.00000  36.47619  -0.000000001300 -0.000000000413  0.014932188662
   21     C     0.00000   0.00000  37.84676  -0.000000000655 -0.000000000121 -0.011830068778
   22     C     0.00000   0.00000  39.21733  -0.000000000828  0.000000000988  0.010534226599
   23     C     0.00000   0.00000  40.58789  -0.000000001437 -0.000000000732 -0.008742419373
   24     C     0.00000   0.00000  41.95846   0.000000005900 -0.000000000424  0.006979005627
   25     C     0.00000   0.00000  43.32903   0.000000000385  0.000000000629 -0.006317497036
   26     C     0.00000   0.00000  44.69960  -0.000000001720 -0.000000000395  0.007240656229
   27     C     0.00000   0.00000  46.07017  -0.000000001030  0.000000000263 -0.025006289034
   28     C     0.00000   0.00000  47.44074  -0.000000001786  0.000000000127 -0.019621382185
   29     C     0.00000   0.00000  48.81131   0.000000000323 -0.000000000022 -0.057269955432
coordinates.forces>

***********************************************************
***********************************************************
       Fractional coordinates of the final structure       
***********************************************************
***********************************************************

     1      C     0.00000000000000   0.00000000000000   0.14079913019842
     2      C     0.00000000000000   0.00000000000000   0.16426565189816
     3      C     0.00000000000000   0.00000000000000   0.18773217359790
     4      C     0.00000000000000   0.00000000000000   0.21119869529764
     5      C     0.00000000000000   0.00000000000000   0.23466521699737
     6      C     0.00000000000000   0.00000000000000   0.25813173869711
     7      C     0.00000000000000   0.00000000000000   0.28159826039685
     8      C     0.00000000000000   0.00000000000000   0.30506478209658
     9      C     0.00000000000000   0.00000000000000   0.32853130379632
    10      C     0.00000000000000   0.00000000000000   0.35199782549606
    11      C     0.00000000000000   0.00000000000000   0.37546434719580
    12      C     0.00000000000000   0.00000000000000   0.39893086889553
    13      C     0.00000000000000   0.00000000000000   0.42239739059527
    14      C     0.00000000000000   0.00000000000000   0.44586391229501
    15      C     0.00000000000000   0.00000000000000   0.48826673915013
    16      C     0.00000000000000   0.00000000000000   0.53066956600526
    17      C     0.00000000000000   0.00000000000000   0.55413608770499
    18      C     0.00000000000000   0.00000000000000   0.57760260940473
    19      C     0.00000000000000   0.00000000000000   0.60106913110447
    20      C     0.00000000000000   0.00000000000000   0.62453565280420
    21      C     0.00000000000000   0.00000000000000   0.64800217450394
    22      C     0.00000000000000   0.00000000000000   0.67146869620368
    23      C     0.00000000000000   0.00000000000000   0.69493521790342
    24      C     0.00000000000000   0.00000000000000   0.71840173960315
    25      C     0.00000000000000   0.00000000000000   0.74186826130289
    26      C     0.00000000000000   0.00000000000000   0.76533478300263
    27      C     0.00000000000000   0.00000000000000   0.78880130470236
    28      C     0.00000000000000   0.00000000000000   0.81226782640210
    29      C     0.00000000000000   0.00000000000000   0.83573434810184

***********************************************************
***********************************************************
               Computational Time (second)                 
***********************************************************
***********************************************************

   Elapsed.Time.       943.189

                            Min_ID    Min_Time    Max_ID    Max_Time
   Total Computational Time =  0      943.189       0      943.189
   readfile                 =  0        6.710       0        6.710
   truncation               =  0       16.489       0       16.489
   MD_pac                   =  0        0.014       0        0.014
   DFT                      =  0      911.229       0      911.229

*** In DFT ***

   Set_OLP_Kin              =  0        8.442       0        8.442
   Set_Nonlocal             =  0        5.376       0        5.376
   Set_Hamiltonian          =  0      173.044       0      173.044
   Poisson                  =  0       18.430       0       18.430
   Diagonalization          =  0       33.919       0       33.919
   Mixing_DM                =  0      509.520       0      509.520
   Force                    =  0       10.618       0       10.618
   Total_Energy             =  0        1.271       0        1.271
   Set_Aden_Grid            =  0        0.472       0        0.472
   Set_Orbitals_Grid        =  0        1.469       0        1.469
   Set_Density_Grid         =  0      131.212       0      131.212
   Others                   =  0       17.457       0       17.457
