-5.693511991698138
-7.69351, 9.6211
-7.64351, 9.98775
-7.59351, 10.3554
-7.54351, 10.6539
-7.49351, 10.4072
-7.44351, 9.04811
-7.39351, 6.77553
-7.34351, 5.48826
-7.29351, 4.64761
-7.24351, 3.61095
-7.19351, 3.58338
-7.14351, 3.59808
-7.09351, 3.63944
-7.04351, 3.69589
-6.99351, 3.76277
-6.94351, 3.82698
-6.89351, 3.89797
-6.84351, 3.96781
-6.79351, 4.01273
-6.74351, 4.0549
-6.69351, 4.09464
-6.64351, 4.13986
-6.59351, 4.18053
-6.54351, 4.24115
-6.49351, 4.31563
-6.44351, 4.38486
-6.39351, 4.44783
-6.34351, 4.48182
-6.29351, 4.51431
-6.24351, 4.54502
-6.19351, 4.57339
-6.14351, 4.59927
-6.09351, 4.62273
-6.04351, 4.64481
-5.99351, 4.66592
-5.94351, 4.6862
-5.89351, 4.70562
-5.84351, 4.72412
-5.79351, 4.74172
-5.74351, 4.75842
-5.69351, 4.77421
-5.64351, 4.7891
-5.59351, 4.8028
-5.54351, 4.81515
-5.49351, 4.82647
-5.44351, 4.83705
-5.39351, 4.84692
-5.34351, 4.85646
-5.29351, 4.8612
-5.24351, 4.86539
-5.19351, 4.86904
-5.14351, 4.87209
-5.09351, 4.87378
-5.04351, 4.87398
-4.99351, 4.87262
-4.94351, 4.86983
-4.89351, 4.86703
-4.84351, 4.86459
-4.79351, 4.86237
-4.74351, 4.85999
-4.69351, 4.85734
-4.64351, 4.85461
-4.59351, 4.85204
-4.54351, 4.84961
-4.49351, 4.85156
-4.44351, 4.85477
-4.39351, 4.85747
-4.34351, 4.85925
-4.29351, 4.85942
-4.24351, 4.85668
-4.19351, 4.85054
-4.14351, 4.84228
-4.09351, 4.83231
-4.04351, 4.82339
-3.99351, 4.81051
-3.94351, 4.79532
-3.89351, 4.73733
-3.84351, 4.72404
-3.79351, 4.7087
-3.74351, 4.69132
-3.69351, 4.67209
