tail -935 out.0000


 Before allocate
 After allocate
 Eigenvalues: 
 Before sortreal
 After sortreal
           1 (2.654868478704081E-002,6.823292341230439E-003)
           2 (-2.784713726255094E-002,3.199843584378302E-002)
           3 (-3.073418239622748E-002,3.155967385147621E-002)
           4 (5.417695611584857E-002,3.027605471336248E-002)
           5 (6.070824315050549E-002,2.835768695543116E-002)
           6 (-6.707820935394500E-002,3.486792444226407E-002)
           7 (-6.648962396617258E-002,3.600461329991277E-002)
           8 (9.595115987981363E-002,4.099309700097590E-003)
           9 (9.595116100804647E-002,4.099306407342394E-003)
          10 (9.596160389160936E-002,4.110862377241439E-003)
          11 (9.596161093045227E-002,4.110868899271088E-003)
          12 (0.112456356447235,1.040738363671773E-002)
          13 (0.112456368106936,1.040739918356610E-002)
          14 (0.112502579208472,1.044478072853507E-002)
          15 (0.112502584485860,1.044478922454681E-002)
          16 (0.118444866858995,3.044722967029773E-002)
          17 (0.124669447900187,3.030660039277847E-002)
          18 (-0.131754643556676,2.940731109270120E-002)
          19 (-0.132165536417999,2.923147579185145E-002)
          20 (0.113950274360469,7.863788124134119E-002)
          21 (0.113950274495560,7.863788510857500E-002)
          22 (0.113950288010039,7.863787096392559E-002)
          23 (0.113950292958691,7.863788496388677E-002)
          24 (0.139124290822235,2.038665507211901E-002)
          25 (0.139124330868560,2.038665587173422E-002)
          26 (0.139169232318482,2.057859776078698E-002)
          27 (0.139169238200240,2.057857497589986E-002)
          28 (0.149404711399331,4.783557177397621E-002)
          29 (0.149404729282443,4.783554695769854E-002)
          30 (0.149408047767320,4.783087446828119E-002)
          31 (0.149408083160417,4.783091147683546E-002)
          32 (0.164706315817824,7.651867146113355E-004)
          33 (0.164706319821872,7.651878171342080E-004)
          34 (0.169625238821599,3.141084674156563E-002)
          35 (0.169625252357450,3.141089326879642E-002)
          36 (0.169740079893610,3.120286539947239E-002)
          37 (0.169740101065352,3.120281500901292E-002)
          38 (0.189111053260949,3.512076445687390E-002)
          39 (-0.190183141926102,3.707407005818232E-002)
          40 (-0.190333274950755,3.706183043943051E-002)
          41 (0.195255421142016,3.765080570188215E-002)
          42 (0.197979755251599,3.196770936803046E-002)
          43 (0.197979802032485,3.196772409560094E-002)
          44 (0.198145812227822,3.185761108898641E-002)
          45 (0.198145836212527,3.185757438113371E-002)
          46 (0.228458009691937,3.120965270777971E-002)
          47 (0.228458057447224,3.120965131804107E-002)
          48 (0.228614001169976,3.115794105369882E-002)
          49 (0.228614019291535,3.115789783318621E-002)
          50 (-0.232517741430518,3.024632844585450E-002)
          51 (-0.232677518212959,3.020537160231524E-002)
          52 (0.245487496534115,2.882931481601455E-002)
          53 (0.260531324392974,3.310913158073724E-002)
          54 (0.263200417219605,3.067760950887174E-002)
          55 (0.263200438508493,3.067758042130097E-002)
          56 (0.263357677321955,3.068068544016639E-002)
          57 (0.263357693389691,3.068064689294163E-002)
          58 (-0.277842294824455,3.136792893493705E-002)
          59 (-0.277938469519802,3.136955422458119E-002)
          60 (0.295486750412160,3.157163197596859E-002)
          61 (0.295486758817612,3.157165093856473E-002)
          62 (0.295636656495788,3.157482803924710E-002)
          63 (0.295636660196455,3.157486340595551E-002)
          64 (0.303384981729594,2.798562073509385E-002)
          65 (-0.312751866941960,2.877379694732815E-002)
          66 (-0.312840294081277,2.879159863799753E-002)
          67 (0.329342933793589,2.833434082235883E-002)
          68 (0.329342954291753,2.833434561399039E-002)
          69 (0.329543396305907,2.833854536166158E-002)
          70 (0.329543420963870,2.833855988216324E-002)
          71 (0.329068712730159,3.383699925143401E-002)
          72 (-0.343963595204454,3.131612254661805E-004)
          73 (-0.349827604235202,1.973392627186464E-002)
          74 (-0.349834502951779,1.989075867102331E-002)
          75 (-0.357877669424536,3.917807152952365E-002)
          76 (-0.357878518155870,3.918050290571114E-002)
          77 (0.360040187690620,2.394503224779690E-002)
          78 (0.360040208729099,2.394503147836655E-002)
          79 (0.360180881881335,2.385992578968352E-002)
          80 (0.360180892323628,2.385994239685732E-002)
          81 (0.361566942703791,3.271255693283231E-002)
          82 (0.359277697414810,6.225846247522322E-002)
          83 (0.359277701573749,6.225847653091973E-002)
          84 (0.359278450555443,6.225910057287704E-002)
          85 (0.359278450743926,6.225911078684065E-002)
          86 (-0.364947280380163,6.453049281796451E-002)
          87 (-0.364947315545380,6.453048506815907E-002)
          88 (-0.371972151605499,2.325767104431332E-003)
          89 (-0.371972152594253,2.325773952158204E-003)
          90 (-0.371972215013950,2.325813415233077E-003)
          91 (-0.371972222167416,2.325812503377725E-003)
          92 (-0.373699299905457,1.073037476901256E-002)
          93 (-0.373735665515253,1.069305600666792E-002)
          94 (-0.383144017893673,7.670844482221265E-003)
          95 (-0.383144024692838,7.670846823999785E-003)
          96 (-0.383144121989103,7.670868778371920E-003)
          97 (-0.383144122606745,7.670884596272631E-003)
          98 (-0.385102238163688,4.601655305581619E-003)
          99 (-0.385109438932104,4.586589530591940E-003)
         100 (-0.386527483943227,2.470002386932255E-002)
         101 (-0.386527530233291,2.469993316967789E-002)
         102 (0.388679131587486,6.816360945169516E-003)
         103 (0.388679139775407,6.816354647166373E-003)
         104 (0.388800384152935,6.743495173316466E-003)
         105 (0.388800395994084,6.743492625027381E-003)
         106 (-0.385033189622578,8.537326364339340E-002)
         107 (-0.385033196160876,8.537325987914199E-002)
         108 (-0.385033197052158,8.537327392677600E-002)
         109 (-0.385033201706927,8.537326920965783E-002)
         110 (0.392889486665060,3.528363486784148E-002)
         111 (-0.386043070585525,9.000127640338890E-002)
         112 (-0.386043081458880,9.000128545800440E-002)
         113 (-0.401086213439002,1.375393787527868E-002)
         114 (-0.401086235438415,1.375394417374232E-002)
         115 (-0.401086368687860,1.375400984740228E-002)
         116 (-0.401086371293562,1.375404282965731E-002)
         117 (-0.401877309570232,1.548356767156027E-003)
         118 (-0.401877636094179,1.548195193919133E-003)
         119 (-0.411020926257589,6.623445129961825E-004)
         120 (-0.411020927492605,6.623481321759953E-004)
         121 (-0.410761651580943,4.900054622016806E-002)
         122 (-0.410761693839718,4.900053770734364E-002)
         123 (-0.410761714700621,4.900058547773786E-002)
         124 (-0.410761742419613,4.900058556203717E-002)
         125 (-0.413224957688322,2.819850101626711E-002)
         126 (-0.413224970084598,2.819850062472126E-002)
         127 (-0.418026989530634,2.358438639389367E-002)
         128 (-0.418027090093950,2.358448639759678E-002)
         129 (-0.418027099622541,2.358438476661277E-002)
         130 (-0.418027109475369,2.358453995189703E-002)
         131 (0.422537170355369,3.653737781572455E-002)
         132 (-0.423226896499832,4.308027346267337E-002)
         133 (-0.423226897097982,4.308027919286178E-002)
         134 (-0.426485504305242,1.437103971420145E-003)
         135 (-0.426485512018489,1.437110878963699E-003)
         136 (-0.431443989687348,2.896178038939436E-004)
         137 (-0.431443998756867,2.896212749610654E-004)
         138 (-0.423004236514348,9.645606772497671E-002)
         139 (-0.423004243694501,9.645606920586307E-002)
         140 (-0.434836860107213,1.571899797639223E-002)
         141 (-0.434836865034702,1.571899760259947E-002)
         142 (-0.435240342503505,1.557354631319257E-002)
         143 (-0.435240434573685,1.557354192318327E-002)
         144 (-0.435240787055822,1.557397355578275E-002)
         145 (-0.435240800717598,1.557401225610965E-002)
         146 (-0.435818631813577,7.467044570824755E-003)
         147 (-0.435818636494468,7.467054008025265E-003)
         148 (-0.436879443136144,1.143021552755888E-004)
         149 (-0.436881535970590,1.143197562821539E-004)
         150 (-0.440078193270511,4.538443232995494E-002)
         151 (-0.440078262133869,4.538445863492353E-002)
         152 (-0.440078294276545,4.538433912716584E-002)
         153 (-0.440078288251512,4.538454265685543E-002)
         154 (-0.431912717796675,9.807633181930378E-002)
         155 (-0.431912722233323,9.807632318563753E-002)
         156 (-0.443534706901732,8.436976770272858E-005)
         157 (-0.443534713307377,8.437800614480295E-005)
         158 (-0.437578716684301,7.686076916062269E-002)
         159 (-0.437578720333718,7.686077386455206E-002)
         160 (-0.448049116166712,4.909633860583569E-003)
         161 (-0.448049121578506,4.909631209112725E-003)
         162 (-0.449294492687093,1.832503422547448E-006)
         163 (-0.447035929580705,6.317810697592807E-002)
         164 (-0.447035934610289,6.317810007237175E-002)
         165 (-0.452266581054776,4.088481925179632E-006)
         166 (-0.452266584385397,4.093129752057341E-006)
         167 (0.452703426160616,3.364147895439581E-002)
         168 (-0.455690065555652,1.347987096463046E-002)
         169 (-0.455690067282452,1.347996263899482E-002)
         170 (-0.455690753940962,1.347886226920325E-002)
         171 (-0.455690765636933,1.347878202313220E-002)
         172 (-0.451282425263911,7.213652866750950E-002)
         173 (-0.451282451122553,7.213653479256947E-002)
         174 (-0.451282468399477,7.213653221300541E-002)
         175 (-0.451282461966208,7.213657693251102E-002)
         176 (-0.457472035887484,7.117074800583702E-003)
         177 (-0.457472042106839,7.117073016908199E-003)
         178 (-0.461036112388863,1.398214573324155E-002)
         179 (-0.461036139770101,1.398210791685117E-002)
         180 (-0.461036684129579,1.398237647437058E-002)
         181 (-0.461036687143123,1.398230796370545E-002)
         182 (-0.464758614761558,1.855229036062221E-005)
         183 (-0.464758625649840,1.855324282479948E-005)
         184 (-0.459511590897583,8.072743907349970E-002)
         185 (-0.459511595362927,8.072744855863453E-002)
         186 (-0.471457535981602,6.572984564645695E-003)
         187 (-0.471457538559641,6.572995865000729E-003)
         188 (-0.471457580305605,6.572770535324584E-003)
         189 (-0.471457586621246,6.572775874358366E-003)
         190 (-0.466900217345052,8.878970305479701E-002)
         191 (-0.466900226755914,8.878970070839849E-002)
         192 (-0.466900232310431,8.878970048536433E-002)
         193 (-0.466900232934553,8.878971434361085E-002)
         194 (-0.482426849995625,2.230478512874667E-003)
         195 (-0.482426851776508,2.230470123832730E-003)
         196 (-0.482426861539887,2.230455440669082E-003)
         197 (-0.482426869241179,2.230458017933756E-003)
         198 (0.488336007272925,3.743376405632948E-002)
         199 (-0.490576547211920,9.221960125337991E-003)
         200 (-0.490576651111256,9.222062424645967E-003)
         201 (-0.490816546292094,7.278583933269268E-002)
         202 (-0.490816560515529,7.278583661893723E-002)
         203 (-0.506361772151979,4.449578070720883E-003)
         204 (-0.506361953692162,4.449835892451709E-003)
         205 (0.511833366402111,3.351154390167393E-002)
         206 (0.522953485882092,8.357456950182623E-006)
         207 (0.522953492380395,8.353782855907710E-006)
         208 (-0.543343128085839,1.485605947647056E-002)
         209 (-0.543343944447240,1.485691125417183E-002)
         210 (-0.550682177003503,6.880799710305716E-004)
         211 (-0.550682183296251,6.880766615077280E-004)
         212 (-0.553108901404925,2.775501914549938E-002)
         213 (-0.553108908976148,2.775501585734569E-002)
         214 (0.557322752129794,3.502872517604085E-002)
         215 (-0.558024463339348,4.344205191617845E-002)
         216 (-0.558024465060185,4.344205642451762E-002)
         217 (-0.555780965520150,6.861606972609745E-002)
         218 (-0.555780975983702,6.861606021267047E-002)
         219 (-0.560222905450212,8.990373077034223E-004)
         220 (-0.560222906105002,8.990292859757898E-004)
         221 (-0.561582250779530,8.150676766284116E-004)
         222 (-0.561582252237212,8.150643170036917E-004)
         223 (-0.554776227559403,9.507342809785711E-002)
         224 (-0.554776232346428,9.507343318739744E-002)
         225 (-0.565384619510122,1.559742829919764E-002)
         226 (-0.565384622456165,1.559743865833759E-002)
         227 (-0.568296336117709,1.773923234728527E-004)
         228 (-0.568296343124168,1.773901684438360E-004)
         229 (-0.570501274884208,1.695686701135855E-002)
         230 (-0.570503563194960,1.695762184822893E-002)
         231 (-0.572709755764931,5.029118144244745E-003)
         232 (-0.572709759508661,5.029120884149584E-003)
         233 (-0.572273930088543,6.296823146854964E-002)
         234 (-0.572273931132407,6.296823586287886E-002)
         235 (-0.567493702610267,9.948228841245887E-002)
         236 (-0.567493707745794,9.948228655350851E-002)
         237 (-0.578783630698753,7.066116426757418E-003)
         238 (-0.578783635724586,7.066108558920340E-003)
         239 (0.577945749052143,3.329944381134244E-002)
         240 (-0.582361202255259,3.594603997528212E-002)
         241 (-0.582361235606685,3.594596801847150E-002)
         242 (-0.580213228530997,8.094740688040822E-002)
         243 (-0.580213229561116,8.094741162359553E-002)
         244 (0.586122305256015,1.113526312890301E-005)
         245 (0.586122307192024,1.113964260461676E-005)
         246 (-0.586455826311355,1.870519644949536E-006)
         247 (-0.586561865901172,1.779103762509316E-005)
         248 (-0.586562144077563,1.775197793634223E-005)
         249 (-0.587655237545558,4.414630587994601E-006)
         250 (-0.604380160475102,6.042737778754045E-003)
         251 (-0.604380774697054,6.041937392598562E-003)
         252 (-0.619849643144129,9.318197401109390E-002)
         253 (-0.619849646221097,9.318197199662356E-002)
         254 (0.627546316293088,3.470101943855251E-002)
         255 (0.645674897140754,3.363100393406123E-002)
         256 (-0.652648909437298,3.201223337488251E-002)
         257 (-0.652648915662556,3.201223564010230E-002)
         258 (-0.656676392774092,1.158007873836020E-003)
         259 (-0.656676404641802,1.158010444942101E-003)
         260 (0.651614708957309,9.686824831899205E-002)
         261 (0.651614715928573,9.686824592967659E-002)
         262 (0.651614717329573,9.686824175965345E-002)
         263 (0.651614723041625,9.686824720087912E-002)
         264 (0.698724003475534,3.286894366651998E-002)
         265 (0.716988827411239,3.295388745682757E-002)
         266 (0.757405692145665,1.200345289323890E-004)
         267 (0.757405695866481,1.200386103261936E-004)
         268 (0.769380104331471,3.147862965897530E-002)
         269 (0.789254436048564,3.257103303737052E-002)
         270 (0.800385916261678,6.763785457987948E-003)
         271 (0.800385924470693,6.763796489915423E-003)
         272 (0.807094978954539,1.191186683280887E-002)
         273 (0.807094980276312,1.191186245040733E-002)
         274 (0.833244120432950,4.543966523905382E-002)
         275 (0.833244132211953,4.543965677535666E-002)
         276 (0.834621746792975,2.119887431954056E-002)
         277 (0.834621776898226,2.119886496342965E-002)
         278 (0.835003840787886,4.543870376090709E-002)
         279 (0.835003859189076,4.543870423548541E-002)
         280 (0.837517699567850,3.141378676577455E-002)
         281 (0.854292731124175,3.216497859257762E-002)
         282 (0.854292741192956,3.216499459479638E-002)
         283 (0.858948619684395,3.417339774383921E-002)
         284 (0.871688377349495,7.167999451995826E-006)
         285 (0.872933284694794,2.667244911052204E-002)
         286 (0.872933297806019,2.667243857578616E-002)
         287 (0.879951346204996,1.269065919571992E-005)
         288 (0.883978871954944,2.191737548984268E-005)
         289 (0.890747455389673,5.159028512166097E-004)
         290 (0.893459041358124,2.688169652269373E-003)
         291 (0.895308389250448,3.926258256013759E-003)
         292 (0.895869394453041,4.543883546787313E-003)
         293 (0.896401336342940,2.742627991972526E-003)
         294 (0.896947003415308,4.882598426198649E-003)
         295 (0.897084205450043,2.922305267167238E-002)
         296 (0.899157339410039,3.761048770828273E-003)
         297 (0.899429032126863,5.624938340293637E-003)
         298 (0.902423515718016,5.960049837230311E-003)
         299 (0.902228218934600,3.154579672490836E-002)
         300 (0.902228244198588,3.154579850213262E-002)
         301 (0.903888458992178,8.973494379026052E-002)
         302 (0.903888470242082,8.973495528204350E-002)
         303 (0.909389165150133,7.044950366271564E-003)
         304 (0.905143666437184,8.973771189059788E-002)
         305 (0.905143682714036,8.973769432841057E-002)
         306 (0.910451657584722,8.751557772755094E-003)
         307 (0.910968760631013,7.676935453756294E-003)
         308 (0.914429147073269,9.989174131709388E-003)
         309 (0.915857445260278,2.919074474064885E-002)
         310 (0.915857455328830,2.919074513753851E-002)
         311 (0.917777673738199,1.510506449798667E-002)
         312 (0.917776650792538,1.667111836948862E-002)
         313 (0.918137220223573,1.529941149989529E-002)
         314 (0.918522808379123,1.616515505865624E-002)
         315 (0.917268948484725,7.820069772034166E-002)
         316 (0.917268977807932,7.820067927811440E-002)
         317 (0.920923694686012,5.578853276212820E-002)
         318 (0.920923734039645,5.578856428743900E-002)
         319 (0.922269383061083,5.347861886506189E-002)
         320 (0.922269420884832,5.347861069612282E-002)
         321 (0.920852479156319,7.507932215306116E-002)
         322 (0.920852513948794,7.507935108292119E-002)
         323 (0.923860571784689,3.329834959806709E-002)
         324 (0.928121068244043,9.432405382677509E-003)
         325 (0.931575492920523,9.839805631707901E-003)
         326 (0.932037039286469,1.096655831419911E-002)
         327 (0.937875812568417,1.173518419044410E-002)
         328 (0.943484057162727,3.293453713050790E-002)
         329 (0.943486591616326,3.293026536746019E-002)
         330 (0.944732174343835,1.292148316532692E-002)
         331 (0.946779769711013,1.253402232597004E-002)
         332 (0.948022742408189,2.871402055943888E-002)
         333 (0.948040207430464,7.239150257858930E-002)
         334 (0.948040213890609,7.239154266284321E-002)
         335 (0.951440869956043,1.573776043869639E-002)
         336 (0.951122051660187,3.244807136544008E-002)
         337 (0.951122063852524,3.244805395103367E-002)
         338 (0.955750761780918,1.493232184489597E-002)
         339 (0.955811169236085,2.974547865653548E-002)
         340 (0.955927936740499,2.977860019968428E-002)
         341 (0.960689531962607,9.006317651704948E-003)
         342 (0.959905928939857,6.953175280305557E-002)
         343 (0.959905939642770,6.953174940998041E-002)
         344 (0.962227176392141,3.095558623812888E-002)
         345 (0.962227180413427,3.095559026755601E-002)
         346 (0.963034727314718,8.552928836476775E-003)
         347 (0.972028240092324,1.154366546952690E-002)
         348 (0.973973939257518,4.749036817253376E-003)
         349 (0.975197724127821,2.552574946958022E-002)
         350 (0.975547608378663,3.748992258813555E-003)
         351 (0.975612178270030,1.049133102874132E-002)
         352 (0.973607930310455,9.330199769804461E-002)
         353 (0.973607933051595,9.330200036793919E-002)
         354 (0.988579158751294,5.583931797029209E-003)
         355 (0.990365480401098,1.035882437361828E-004)
         356 (0.991597187082405,4.177591788187432E-003)
         357 (0.991650985104181,1.650699222585311E-002)
         358 (0.990903858061618,9.288982600635824E-002)
         359 (0.990903864762367,9.288982074949670E-002)
         360 (1.00351426321520,2.940354016000521E-004)
         361 (1.00304307885213,3.229466798190025E-002)
         362 (1.00304309692803,3.229468577222172E-002)
         363 (1.01331449301793,7.180462239011894E-003)
         364 (1.01318804126911,3.153983901495505E-002)
         365 (1.01318805186191,3.153984701574648E-002)
         366 (1.01698629701108,1.292191332838870E-002)
         367 (1.02653791728420,2.996974939437780E-003)
         368 (1.03066380322802,1.369114826058187E-005)
         369 (1.03299426649025,8.161777613421675E-004)
         370 (1.03525533140267,2.227674868460915E-002)
         371 (1.03543503596797,2.264341139707706E-002)
         372 (1.03327971323823,8.538149888101532E-002)
         373 (1.03328063530450,8.537664684830004E-002)
         374 (1.04612691453228,3.851989345907971E-003)
         375 (1.04689475930463,1.659335494644119E-005)
         376 (1.04695255586167,4.132538116754130E-003)
         377 (1.05171786817235,8.107009598944739E-003)
         378 (1.05180716462604,8.290068069734976E-003)
         379 (1.05650104346975,4.516682991249697E-002)
         380 (1.05650875599085,4.517316895535938E-002)
         381 (1.05473127424308,8.009231879435255E-002)
         382 (1.05473178646552,8.009171538202160E-002)
         383 (1.05779179584910,3.259797690767129E-002)
         384 (1.05779181765340,3.259797610175159E-002)
         385 (1.06515885864136,5.733756202775044E-003)
         386 (1.06621123764711,6.181335772320525E-003)
         387 (1.06744006284228,3.257314799611688E-002)
         388 (1.06744006861421,3.257313121650941E-002)
         389 (1.07435864722824,3.369336490939312E-002)
         390 (1.07435879025903,3.369413891974405E-002)
         391 (1.07892575557600,1.113537602860411E-002)
         392 (1.07961869508750,1.113368896891677E-002)
         393 (1.07971376035244,7.268040714872569E-002)
         394 (1.07971378737756,7.268042783838426E-002)
         395 (1.09106693362084,8.798817656561653E-003)
         396 (1.09170139773791,8.417810047487933E-003)
         397 (1.10348695347786,3.395459851032107E-003)
         398 (1.10374053206034,3.985985720959439E-003)
         399 (1.10271174799637,9.321475780666710E-002)
         400 (1.10271174830436,9.321476484634220E-002)
         401 (1.10764331627241,4.652830440412857E-004)
         402 (1.11299571698921,3.227550018274394E-002)
         403 (1.11299571963671,3.227548984427653E-002)
         404 (1.12321793475709,3.247502196628860E-002)
         405 (1.12321793503126,3.247503705764861E-002)
         406 (1.12909697977036,3.932809359711851E-005)
         407 (1.16969382901475,3.240204748210207E-002)
         408 (1.16969382944500,3.240206064191507E-002)
         409 (1.17384426922797,1.542052519425330E-005)
         410 (1.18057163463850,3.327288733083811E-002)
         411 (1.18057163856480,3.327287968807999E-002)
         412 (1.22498536262130,3.169121181071988E-002)
         413 (1.22498536967317,3.169120561928367E-002)
         414 (1.23783957157381,3.339488366689559E-002)
         415 (1.23783957679473,3.339488436371872E-002)
         416 (1.24817431802936,1.712371215389667E-004)
         417 (1.25459904856863,2.546064409959636E-003)
         418 (1.25459905699194,2.546066154868788E-003)
         419 (1.25460155549934,2.559289835659220E-003)
         420 (1.25460155604460,2.559287135554081E-003)
         421 (1.25694208059359,3.437469262927983E-004)
         422 (1.26486049234249,8.005547291290105E-003)
         423 (1.26486049634452,8.005553941342058E-003)
         424 (1.26576971125462,8.095248135133987E-003)
         425 (1.26576971268227,8.095255874208668E-003)
         426 (1.27154555031134,5.260143995387078E-003)
         427 (1.26975198426573,8.510220103444555E-002)
         428 (1.26975198528511,8.510219168584660E-002)
         429 (1.26975265351424,8.510196899288489E-002)
         430 (1.26975266639187,8.510197304137526E-002)
         431 (1.27621642938815,5.750518927798049E-003)
         432 (1.27658214183934,9.199221592605469E-003)
         433 (1.27812334594696,1.567399550830529E-002)
         434 (1.27812336684386,1.567401912467004E-002)
         435 (1.28048571754048,1.248603894725375E-002)
         436 (1.28048573344419,1.248605061261662E-002)
         437 (1.28251953630512,9.883529054470428E-003)
         438 (1.28531217952498,3.330408897453371E-002)
         439 (1.28531221712971,3.330400770507082E-002)
         440 (1.28536457865748,8.154024385554226E-002)
         441 (1.28536486432277,8.154034891650651E-002)
         442 (1.29255647472765,4.302484006134821E-002)
         443 (1.29255650728162,4.302490233573222E-002)
         444 (1.29352093785032,1.255063762002443E-002)
         445 (1.29384335387556,2.346260079446407E-002)
         446 (1.29384345437907,2.346266204336648E-002)
         447 (1.29242122813972,7.970082992121276E-002)
         448 (1.29242194371223,7.970055223991879E-002)
         449 (1.29566030483692,5.515315873913943E-002)
         450 (1.29566040249927,5.515320491238346E-002)
         451 (1.29591064024147,5.468533918971994E-002)
         452 (1.29591063838402,5.468544859067825E-002)
         453 (1.29850346783920,2.048017799095941E-002)
         454 (1.29850351583259,2.048019160748366E-002)
         455 (1.30156949704926,1.545151255606679E-002)
         456 (1.30359174395149,1.619049415501950E-003)
         457 (1.30359174837446,1.619037779878179E-003)
         458 (1.30053962108252,9.506802231234862E-002)
         459 (1.30053963406709,9.506808278655421E-002)
         460 (1.30897626701112,1.927814246162716E-002)
         461 (1.31360624619556,3.447307174629699E-002)
         462 (1.31360647265219,3.447300115567896E-002)
         463 (1.31504196803471,2.326913369885035E-002)
         464 (1.31753668385211,3.691063093341278E-002)
         465 (1.31753683527277,3.691048510302808E-002)
         466 (1.32261829714234,3.475221703513559E-002)
         467 (1.32261829440182,3.475233957691203E-002)
         468 (1.32466690837772,4.626156131945905E-002)
         469 (1.32468687349963,4.749902889370269E-002)
         470 (1.32841784356799,2.624849395334205E-002)
         471 (1.32841791747358,2.624851551165547E-002)
         472 (1.32888428712950,2.627933480673546E-002)
         473 (1.32888436514655,2.627922965960630E-002)
         474 (1.33168299461293,3.801117539514095E-002)
         475 (1.33258289786397,2.544160397728821E-002)
         476 (1.33485876020719,4.212454530792248E-002)
         477 (1.33641842676770,3.177767371041453E-002)
         478 (1.33641842778054,3.177768785199042E-002)
         479 (1.34528333305614,3.139575830441581E-002)
         480 (1.35484477742760,1.934419925850286E-002)
         481 (1.35484477783791,1.934419103094220E-002)
         482 (1.35583676804355,3.174985478505723E-002)
         483 (1.36370245628990,2.851192307203654E-002)
         484 (1.36370248567213,2.851195629615629E-002)
         485 (1.36416563470489,2.856891860072328E-002)
         486 (1.36416564043390,2.856896826497229E-002)
         487 (1.36789139384398,3.334966648698990E-002)
         488 (1.37148666731533,3.062655862082518E-002)
         489 (1.37262878193526,9.114944232793266E-004)
         490 (1.37620755316423,1.262583803362749E-002)
         491 (1.37620756047634,1.262583019953501E-002)
         492 (1.38464678160842,5.546502057992503E-003)
         493 (1.38464678717398,5.546509805537836E-003)
         494 (1.38446660812056,3.120878402419172E-002)
         495 (1.38719464489454,6.880931963274274E-003)
         496 (1.38502253819078,8.434759771081168E-002)
         497 (1.38502254404289,8.434760540486159E-002)
         498 (1.38502802489213,8.435231639094742E-002)
         499 (1.38502802710508,8.435232351157460E-002)
         500 (1.39167555134598,3.274489876078868E-002)
         501 (1.39167558157201,3.274491784005935E-002)
         502 (1.39209311044318,3.284169753234556E-002)
         503 (1.39209314964271,3.284174975666906E-002)
         504 (1.39531664444499,3.346447766980246E-002)
         505 (1.39607398302879,1.178793442123045E-002)
         506 (1.40080015102473,7.953013116199159E-002)
         507 (1.40080121068787,7.953228156594438E-002)
         508 (1.40880964943746,3.336539047243876E-002)
         509 (1.40912331529582,3.201926783833726E-002)
         510 (1.41634289388990,1.822227620364456E-002)
         511 (1.42145143081617,3.128286093401615E-002)
         512 (1.42145145157628,3.128286250213781E-002)
         513 (1.42215146149431,3.147841278423878E-002)
         514 (1.42215148681799,3.147841604791514E-002)
         515 (1.42407555754300,3.179191480531296E-002)
         516 (1.43195876443003,2.709990863659902E-002)
         517 (1.43747918296802,3.310115214935958E-002)
         518 (1.44627761065417,3.616601627293130E-002)
         519 (1.44851356031000,2.367406520342340E-003)
         520 (1.45125265344793,3.187344744855192E-002)
         521 (1.45262629245652,3.331877085354873E-002)
         522 (1.45635028497208,3.229110849307382E-002)
         523 (1.45635031065128,3.229109850094280E-002)
         524 (1.45717589893556,3.734325726241689E-002)
         525 (1.45746874353579,3.278706433571799E-002)
         526 (1.45746874759245,3.278707718921215E-002)
         527 (1.46718592550639,3.197055370665203E-002)
         528 (1.47405115836783,5.464061406194979E-005)
         529 (1.47405116495610,5.464686162403742E-005)
         530 (1.47571659341018,3.080371586710326E-002)
         531 (1.47792075651544,4.377171954127389E-002)
         532 (1.47792076866251,4.377172459511358E-002)
         533 (1.47828756021826,4.365800676538402E-002)
         534 (1.47828757695574,4.365797547509915E-002)
         535 (1.48479057274679,3.209253873684819E-002)
         536 (1.49124480238420,1.410768067665712E-002)
         537 (1.49929603955176,3.210876333013697E-002)
         538 (1.50084264677123,3.216970475909744E-002)
         539 (1.50189329946418,3.245028366768807E-002)
         540 (1.50440699304742,2.352647593795302E-002)
         541 (1.50632652313012,1.636627255608435E-002)
         542 (1.50632652675787,1.636625819164972E-002)
         543 (1.50919897465295,1.578547499980731E-002)
         544 (1.50919899161545,1.578546450131140E-002)
         545 (1.51609048533559,3.191645893476174E-002)
         546 (1.52023688090398,3.119801898587143E-002)
         547 (1.53461984323706,3.235079079298409E-002)
         548 (1.53604432809150,2.990288502725490E-002)
         549 (1.54994861308610,3.245635391537871E-002)
         550 (1.55078833101758,9.528007965842188E-004)
         551 (1.55078833724206,9.528051603402421E-004)
         552 (1.55047420147089,3.255263497825348E-002)
         553 (1.55227673196945,3.261920450450038E-002)
         554 (1.55790484134546,3.039016868794463E-002)
         555 (1.56785877884338,3.300889217318458E-002)
         556 (1.57014150359147,3.119399780553472E-002)
         557 (1.58296783830293,4.597460570570856E-003)
         558 (1.58296784012005,4.597450672900516E-003)
         559 (1.58608809570928,6.627129181799553E-003)
         560 (1.58608809960410,6.627137647969183E-003)
         561 (1.58783717605119,4.153014494375315E-003)
         562 (1.58783717732612,4.153020804956275E-003)
         563 (1.58772506059132,3.158841774542087E-002)
         564 (1.59199551619893,8.144570751074758E-003)
         565 (1.59199552212529,8.144548869972734E-003)
         566 (1.59999705260914,1.416736576001387E-002)
         567 (1.59999706127545,1.416734940249097E-002)
         568 (1.60192386707399,2.948243765952416E-002)
         569 (1.60314052186375,8.134011391772385E-002)
         570 (1.60314052661390,8.134012202603988E-002)
         571 (1.60314203971287,8.134126442969343E-002)
         572 (1.60314204298043,8.134125107131801E-002)
         573 (1.60507939570719,3.182688812869756E-002)
         574 (1.60511836713722,3.232586969433249E-002)
         575 (1.60654015945552,3.239231407401594E-002)
         576 (1.60798150356611,9.336571699900311E-003)
         577 (1.60798152028037,9.336572439478831E-003)
         578 (1.60891983208448,5.713382356677865E-002)
         579 (1.60891984255181,5.713384184589664E-002)
         580 (1.60893456802477,5.713191561514584E-002)
         581 (1.60893457227602,5.713193670792793E-002)
         582 (1.61298020777674,2.250105937867675E-003)
         583 (1.61298020965520,2.250109706715861E-003)
         584 (1.62054521938386,2.761455635559163E-002)
         585 (1.62054522477063,2.761451283548855E-002)
         586 (1.62079462472226,2.633613074861940E-002)
         587 (1.62079464766843,2.633610644755949E-002)
         588 (1.62297970087183,3.208789603708716E-002)
         589 (1.62551114756102,3.254379644512171E-002)
         590 (1.63088692899279,3.358228645186069E-002)
         591 (1.63443728993934,7.956737054873514E-002)
         592 (1.63443729623357,7.956738087626802E-002)
         593 (1.63444966229190,7.956757888170898E-002)
         594 (1.63444966273012,7.956758319557539E-002)
         595 (1.64361842123130,3.075327144663954E-002)
         596 (1.64672738067575,8.891523945484398E-003)
         597 (1.64672739044196,8.891524991580885E-003)
         598 (1.64791882628479,3.177103691846206E-003)
         599 (1.64791883262434,3.177100807082445E-003)
         600 (1.65201692158903,3.466172282828816E-002)
         601 (1.65201695554233,3.466174126202293E-002)
         602 (1.65299167456705,3.397580010786879E-002)
         603 (1.65299170165920,3.397581241499770E-002)
         604 (1.66239916759921,3.055906308673388E-002)
         605 (1.66436439391038,3.043703605685082E-002)
         606 (1.66434246420392,3.223823260250146E-002)
         607 (1.66974334143351,2.040419720496127E-002)
         608 (1.66974334289770,2.040419133579863E-002)
         609 (1.67203455461386,3.105251613670810E-002)
         610 (1.68050236129343,3.195863947181588E-002)
         611 (1.68050238644496,3.195861666612437E-002)
         612 (1.68230982754522,3.133352975030812E-002)
         613 (1.68230984513845,3.133351999143623E-002)
         614 (1.68344439609996,3.194439164926720E-002)
         615 (1.68668394278295,3.349675183249043E-002)
         616 (1.68855313871349,2.509463128098838E-002)
         617 (1.68855314643479,2.509461097386346E-002)
         618 (1.69769086700786,4.854624399374039E-002)
         619 (1.70159766428826,3.017349442857281E-002)
         620 (1.70559438407390,3.715933945314207E-002)
         621 (1.71009844141169,1.700387268511427E-002)
         622 (1.71349983249763,3.131750418870949E-002)
         623 (1.71349983387089,3.131749898615027E-002)
         624 (1.72185530787242,3.107423478616107E-002)
         625 (1.72503409585797,3.100417889511942E-002)
         626 (1.72503410146659,3.100418288989615E-002)
         627 (1.72702962294015,3.244245832296819E-002)
         628 (1.72707689754665,3.237167777856054E-002)
         629 (1.72707690840460,3.237169982763911E-002)
         630 (1.72935591574704,3.250258856167349E-002)
         631 (1.72935592862320,3.250261476503342E-002)
         632 (1.74575687337462,3.409958882993725E-002)
         633 (1.74913326739035,7.227575665543496E-003)
         634 (1.75372678512817,6.566579430909110E-003)
         635 (1.75372678660031,6.566589705408108E-003)
         636 (1.75475245943574,5.250571334670149E-003)
         637 (1.75661715341012,3.165893903228922E-002)
         638 (1.75661716935584,3.165892754521100E-002)
         639 (1.76114090981069,3.015604155771986E-002)
         640 (1.76911873824109,3.259183672616039E-002)
         641 (1.76911874223862,3.259185866777404E-002)
         642 (1.76936915243630,3.027188184231525E-002)
         643 (1.76936918704637,3.027188679127679E-002)
         644 (1.77575414764081,3.243697870596088E-002)
         645 (1.77575415450024,3.243695244985290E-002)
         646 (1.77850307764023,2.975806582461610E-002)
         647 (1.79197017408932,3.346585826155896E-002)
         648 (1.80387313505982,3.047433202327138E-002)
         649 (1.80387313664854,3.047432639447467E-002)
         650 (1.81156903777838,3.246815133993782E-002)
         651 (1.81237377699005,1.845902842474184E-002)
         652 (1.81237378618066,1.845902676265020E-002)
         653 (1.81464893456849,3.585251150361377E-002)
         654 (1.81464894813440,3.585251788227417E-002)
         655 (1.81573488844499,3.716526283474297E-002)
         656 (1.81573489605436,3.716524797473376E-002)
         657 (1.81968433257599,3.077202262812760E-002)
         658 (1.82130789618542,7.973897937618019E-002)
         659 (1.82154590046348,7.961113856279112E-002)
         660 (1.82516360669804,2.793932787064842E-002)
         661 (1.82516360977125,2.793931617626027E-002)
         662 (1.82598273883487,3.257757601414880E-002)
         663 (1.82598275516876,3.257755774828334E-002)
         664 (1.83926055608797,3.049909322918507E-002)
         665 (1.84291112720726,4.289827902820220E-002)
         666 (1.84291113637304,4.289828942716797E-002)
         667 (1.84667958581833,4.016698635248717E-002)
         668 (1.84667959575899,4.016699612623185E-002)
         669 (1.85295527708389,3.135496461114099E-002)
         670 (1.85295529211679,3.135496647476438E-002)
         671 (1.85421450616314,2.865952328801041E-002)
         672 (1.85949266670364,3.465149761915307E-002)
         673 (1.85949267320040,3.465148550910535E-002)
         674 (1.86413806614925,3.374446473694440E-002)
         675 (1.86413807559449,3.374446633751557E-002)
         676 (1.86838710717830,4.017528159773767E-003)
         677 (1.87378572670978,2.839283364799499E-002)
         678 (1.87723352468958,1.885362857069805E-002)
         679 (1.88023025036570,3.285551531818953E-002)
         680 (1.88023025067178,3.285552270089132E-002)
         681 (1.89601528839333,1.846907633842660E-002)
         682 (1.89992152548244,3.065164216702079E-002)
         683 (1.89992152814577,3.065163582931896E-002)
         684 (1.90127820703727,3.202982453141143E-002)
         685 (1.90127822151130,3.202983298296835E-002)
         686 (1.90612207269263,3.232841099236389E-002)
         687 (1.90612207828988,3.232839713598867E-002)
         688 (1.90660228924201,3.515122569912021E-002)
         689 (1.90660229231652,3.515121214046787E-002)
         690 (1.91567966426018,2.453004463448992E-003)
         691 (1.91571577765282,2.490651050541732E-003)
         692 (1.91638660808857,2.415897435569219E-002)
         693 (1.91638661575121,2.415898277406403E-002)
         694 (1.91657234564271,1.254493943214697E-002)
         695 (1.92585186065149,7.188891572274267E-003)
         696 (1.92597468669696,7.318950221269729E-003)
         697 (1.93065549720498,3.390086833439916E-002)
         698 (1.93065549793798,3.390084881236399E-002)
         699 (1.93008427901824,8.558576081379354E-002)
         700 (1.93008428208857,8.558575236053674E-002)
         701 (1.93573669623163,3.275497719455194E-002)
         702 (1.93573669824489,3.275499474145716E-002)
         703 (1.93880719321934,2.320270417383410E-002)
         704 (1.93979977056167,1.899737206476115E-002)
         705 (1.93979978549874,1.899737778235253E-002)
         706 (1.94120277878956,1.308734058183882E-002)
         707 (1.94136092274739,1.360725044575551E-002)
         708 (1.94242312838942,2.398774290623790E-002)
         709 (1.94379338062789,6.171093426183605E-003)
         710 (1.95184805882296,3.200202619376459E-002)
         711 (1.95447991946527,5.830049482139173E-002)
         712 (1.95448003027121,5.830046779613940E-002)
         713 (1.95687748796025,8.183239819011034E-003)
         714 (1.95687749530165,8.183236747221987E-003)
         715 (1.95970846712982,2.643879495552239E-003)
         716 (1.95961173301809,2.223987856043112E-002)
         717 (1.96017989097905,2.156638649723045E-002)
         718 (1.96176068131697,3.225841848866279E-002)
         719 (1.96176069985544,3.225842169215556E-002)
         720 (1.96330908812741,3.397049413556090E-002)
         721 (1.96330909785549,3.397048400124913E-002)
         722 (1.96384359489409,5.416866616292913E-003)
         723 (1.97059680077871,3.393292874617602E-002)
         724 (1.97743220356656,3.960742501997484E-002)
         725 (1.97751610450363,3.966567667837508E-002)
         726 (1.98950405312493,2.666276552952272E-002)
         727 (1.99050542889294,2.607171666612207E-002)
         728 (1.99194349681728,3.255790839797101E-002)
         729 (1.99194350217783,3.255789350893125E-002)
         730 (1.99450507789212,3.665109307817783E-002)
         731 (1.99450509015590,3.665110320050924E-002)
         732 (2.00467161854805,3.607230478089116E-002)
         733 (2.01616010144952,3.042986306274497E-002)
         734 (2.01624507655169,6.321915208040435E-002)
         735 (2.01770811699525,4.935986235368617E-003)
         736 (2.01770811775852,4.935981462676787E-003)
         737 (2.01687754196696,6.528864413380485E-002)
         738 (2.02040060948734,3.257269947868613E-002)
         739 (2.02040061733166,3.257271691390293E-002)
         740 (2.02408589804070,2.951648478980334E-002)
         741 (2.02480658890924,2.970441376310268E-002)
         742 (2.02875594390561,3.526832793023126E-002)
         743 (2.02875595499749,3.526833147040718E-002)
         744 (2.03529947478189,3.291675924634871E-002)
         745 (2.03669382398937,3.159391802359420E-002)
         746 (2.03964519118811,2.445681316759357E-003)
         747 (2.03967510671948,2.405528699985400E-003)
         748 (2.03942978966765,6.523185039240730E-002)
         749 (2.03978684132821,6.694340999593583E-002)
         750 (2.04948078142639,1.834046449392546E-002)
         751 (2.05042415743510,3.216154497648845E-002)
         752 (2.05119078966144,7.424519221720611E-003)
         753 (2.05122601691032,3.232687828021826E-002)
         754 (2.05150892594905,7.965254777318949E-003)
         755 (2.05178903018874,3.191149787798697E-002)
         756 (2.05178904345390,3.191150022109856E-002)
         757 (2.05450425736838,8.616719670037704E-002)
         758 (2.05450503911202,8.616788331677273E-002)
         759 (2.06169444644471,7.113010022953982E-002)
         760 (2.06169446563562,7.113011406539076E-002)
         761 (2.06249042657910,7.319755664112204E-002)
         762 (2.06249042701870,7.319756838875068E-002)
         763 (2.06534237499368,1.473832847784750E-002)
         764 (2.06559799899930,1.416310754990463E-002)
         765 (2.06754547961981,4.489962272887901E-002)
         766 (2.06754549144265,4.489963249011542E-002)
         767 (2.07275904314030,1.716561176255504E-002)
         768 (2.08045867773716,2.415767839714846E-002)
         769 (2.08007000301112,5.863170446779410E-002)
         770 (2.08024466172892,5.853892522882965E-002)
         771 (2.08122794821025,2.305287239106516E-002)
         772 (2.08142502715867,3.470095668443851E-002)
         773 (2.08142502943606,3.470096608023084E-002)
         774 (2.08155725675386,3.062384251364875E-002)
         775 (2.08170675839929,3.184316873050447E-002)
         776 (2.08201139865535,2.277319985774441E-003)
         777 (2.08292041454933,3.116514890264345E-002)
         778 (2.08554080543497,2.633569003601566E-002)
         779 (2.09977596786496,3.897012950326932E-002)
         780 (2.10012391382397,3.368510725405383E-002)
         781 (2.10012391636477,3.368511063231779E-002)
         782 (2.10357070480855,3.893281569527287E-002)
         783 (2.10384025187460,2.616527466379123E-002)
         784 (2.10791156252454,2.577225728203990E-002)
         785 (2.10942351893828,2.540944529440288E-002)
         786 (2.10989616294866,2.861252409943340E-002)
         787 (2.11256128275783,3.034647485726549E-002)
         788 (2.11256129131447,3.034647960423206E-002)
         789 (2.11359196866061,3.469225377478528E-002)
         790 (2.11511964144216,3.563735500429963E-002)
         791 (2.11897549831800,3.295310522656205E-002)
         792 (2.12878871375180,2.865048091065074E-002)
         793 (2.13133397784974,3.069439409483213E-002)
         794 (2.13951123344215,3.891219225870977E-002)
         795 (2.14079871959278,3.944550457866729E-002)
         796 (2.14196754148475,3.724311813218859E-002)
         797 (2.14196755204927,3.724311871663043E-002)
         798 (2.14687089560621,2.785439831083990E-002)
         799 (2.14742595869929,2.750942351124283E-002)
         800 (2.14789715650092,3.425108191564585E-002)
         801 (2.14789716817298,3.425106160239333E-002)
         802 (2.15098784348237,2.829502968012739E-002)
         803 (2.15421886005290,2.777989772891861E-002)
         804 (2.16320257233477,1.757277589684791E-002)
         805 (2.16365779077163,3.250556329094101E-002)
         806 (2.16365779330883,3.250557520239921E-002)
         807 (2.16578978971877,3.110239123077552E-002)
         808 (2.17132235312871,1.758903617353648E-002)
         809 (2.17298654005962,1.876483361506918E-002)
         810 (2.17674070713960,3.316298914825053E-002)
         811 (2.17750103768090,3.363684299922813E-002)
         812 (2.17786096726998,3.167158819512639E-002)
         813 (2.17786097442616,3.167158191092342E-002)
         814 (2.18416769535916,8.455941331469969E-003)
         815 (2.18416770105724,8.455947360661575E-003)
         816 (2.18816989519253,3.104357356287419E-002)
         817 (2.19288478605277,3.680609439501627E-003)
         818 (2.19812151579511,1.291319994332696E-002)
         819 (2.19812152177222,1.291319358596165E-002)
         820 (2.20312379367890,3.227478467607073E-002)
         821 (2.20381784805506,3.309476574264344E-002)
         822 (2.20574560721959,3.098019974025109E-002)
         823 (2.20634196354283,3.163912152893530E-002)
         824 (2.20675740081850,3.070514919239094E-002)
         825 (2.20675740174596,3.070514524719758E-002)
         826 (2.21214260784375,3.233498844392668E-002)
         827 (2.21214261391909,3.233497497068694E-002)
         828 (2.21671614760907,6.935647733409585E-003)
         829 (2.22033599542174,2.546168616855349E-002)
         830 (2.22033599934522,2.546170508486532E-002)
         831 (2.22365816574708,3.017113222417989E-002)
         832 (2.22365817730226,3.017113591776771E-002)
         833 (2.22822045726092,3.173428534412015E-002)
         834 (2.23231310074302,3.062540642800077E-002)
         835 (2.23344425398125,3.426585704995633E-002)
         836 (2.23344426054186,3.426586872024209E-002)
         837 (2.23980331929618,2.810658111245234E-002)
         838 (2.24208373410349,2.920589935241670E-002)
         839 (2.24518016285417,3.185045505271299E-002)
         840 (2.24523269416443,3.245239603371136E-002)
         841 (2.24523269941174,3.245239813570262E-002)
         842 (2.24527096081358,3.652415120952153E-002)
         843 (2.24527099162266,3.652413207534144E-002)
         844 (2.25305323811542,3.707142645737016E-002)
         845 (2.25305325240156,3.707142491700140E-002)
         846 (2.25597606782222,2.747502947696958E-002)
         847 (2.25597609854503,2.747502329608087E-002)
         848 (2.25787481273911,2.088758354038553E-003)
         849 (2.26386222213112,4.447249234113547E-002)
         850 (2.26439210370773,4.445668239446353E-002)
         851 (2.26708089819471,3.183671994870066E-002)
         852 (2.27681239894105,7.512031746673076E-002)
         853 (2.27681240496649,7.512030904074611E-002)
         854 (2.27694451308147,7.518454385665212E-002)
         855 (2.27694451513087,7.518453676319269E-002)
         856 (2.27815634071396,1.977125058765218E-002)
         857 (2.27815635159872,1.977124756509197E-002)
         858 (2.28106200885296,3.241912775351754E-002)
         859 (2.28106201035606,3.241912113861378E-002)
         860 (2.28109534443296,8.038154424795010E-002)
         861 (2.28110402375848,8.037428654620604E-002)
         862 (2.28346239633509,1.590536029946189E-002)
         863 (2.28346240190721,1.590536459341107E-002)
         864 (2.28654240691225,1.327998556247456E-002)
         865 (2.28654240834418,1.327998173898031E-002)
         866 (2.28745191216172,3.163152537383350E-002)
         867 (2.28912574823137,1.739885522704864E-002)
         868 (2.29484306116539,7.676371265290527E-003)
         869 (2.29484306294233,7.676365752951741E-003)
         870 (2.29558169326092,1.734574863193963E-002)
         871 (2.29661714431388,3.239798260104643E-002)
         872 (2.29984209648319,8.391214394759060E-003)
         873 (2.30917899750938,3.150006445934175E-002)
         874 (2.31522536198323,3.285749499798478E-002)
         875 (2.31522537050409,3.285749950885197E-002)
         876 (2.32074932932025,2.800475943957304E-003)
         877 (2.32311043840758,1.994681111316913E-002)
         878 (2.32842288046890,3.197615981526650E-002)
         879 (2.32925422437293,3.556664215026764E-002)
         880 (2.33619757080198,8.166573313710418E-002)
         881 (2.33622520949373,8.100352715481486E-002)
         882 (2.34249245662174,2.545846727224024E-002)
         883 (2.34487871356146,3.670371451188517E-004)
         884 (2.34487871589776,3.670409133391672E-004)
         885 (2.35045030148646,3.186479296721292E-002)
         886 (2.35099666503699,3.208544443920580E-002)
         887 (2.35099666803291,3.208543862138950E-002)
         888 (2.35357060433430,2.268395625053451E-004)
         889 (2.35357060732053,2.268465618917581E-004)
         890 (2.36643981493023,3.159265559230114E-002)
         891 (2.37117306529304,3.181024169811084E-002)
         892 (2.38291409971198,3.306225869446175E-002)
         893 (2.38487482688778,2.345306134491828E-003)
         894 (2.38652570259357,2.468700721000044E-002)
         895 (2.38790205989767,3.215486606490672E-002)
         896 (2.38790206020135,3.215487415597806E-002)
         897 (2.39295787843027,3.177059151282752E-002)
         898 (2.40702252826033,7.952064373848464E-002)
         899 (2.40703157512070,7.951098040152933E-002)
         900 (2.40869538438883,3.175107760344244E-002)
         901 (2.41174719864173,1.212012310697735E-002)
         902 (2.41377720189964,3.236954258230679E-002)
         903 (2.42344429976143,8.752757963451509E-003)
         904 (2.42456096057355,3.195045058569663E-002)
         905 (2.42456096351030,3.195045168527666E-002)
         906 (2.42634111546849,3.341372872651482E-002)
         907 (2.42977506905669,3.272561532471964E-002)
         908 (2.43570245774841,3.230944490393335E-002)
         909 (2.44726654883850,2.003984303835100E-002)
         910 (2.45602734927031,3.190687114657190E-002)
         911 (2.45631081844239,3.141820398368327E-002)
         912 (2.46245416440868,3.167992909390094E-002)
         913 (2.46245417076249,3.167991907733968E-002)
         914 (2.46590362228804,2.686472191414513E-002)
         915 (2.47216328749314,2.981101056387858E-002)
         916 (2.47341664815238,1.734348526392818E-002)
         917 (2.47779373936079,3.190468720403616E-002)
         918 (2.48077815833136,3.269873986828178E-002)
         919 (2.48931621098899,2.824042583140911E-002)
         920 (2.49964679057630,2.870144543155639E-002)
         921 (2.49964679300706,2.870143850437936E-002)
         922 (2.50053101879575,3.267345921580091E-002)
         923 (2.50359276663821,2.797010773307454E-002)
         924 (2.50645676496202,2.508296091977266E-002)
 nec=          924
 
 Closing file on PE #           0
 
  Error check           -1          -1
  Error code ierr =           -1
